%!PS-Adobe-2.0 EPSF-2.0
%%Title: grafico2.eps
%%Creator: gnuplot 4.2 patchlevel 2 
%%CreationDate: Mon Apr 13 02:24:14 2009
%%DocumentFonts: (atend)
%%BoundingBox: 50 50 410 302
%%EndComments
%%BeginProlog
/gnudict 256 dict def
gnudict begin
%
% The following 6 true/false flags may be edited by hand if required
% The unit line width may also be changed
%
/Color false def
/Blacktext false def
/Solid false def
/Dashlength 1 def
/Landscape false def
/Level1 false def
/Rounded false def
/TransparentPatterns false def
/gnulinewidth 5.000 def
/userlinewidth gnulinewidth def
%
/vshift -50 def
/dl1 {
  10.0 Dashlength mul mul
  Rounded { currentlinewidth 0.75 mul sub dup 0 le { pop 0.01 } if } if
} def
/dl2 {
  10.0 Dashlength mul mul
  Rounded { currentlinewidth 0.75 mul add } if
} def
/hpt_ 31.5 def
/vpt_ 31.5 def
/hpt hpt_ def
/vpt vpt_ def
Level1 {} {
/SDict 10 dict def
systemdict /pdfmark known not {
  userdict /pdfmark systemdict /cleartomark get put
} if
SDict begin [
  /Title (grafico2.eps)
  /Subject (gnuplot plot)
  /Creator (gnuplot 4.2 patchlevel 2 )
  /Author (claudio,,,)
%  /Producer (gnuplot)
%  /Keywords ()
  /CreationDate (Mon Apr 13 02:24:14 2009)
  /DOCINFO pdfmark
end
} ifelse
%
% Gnuplot Prolog Version 4.2 (August 2006)
%
/M {moveto} bind def
/L {lineto} bind def
/R {rmoveto} bind def
/V {rlineto} bind def
/N {newpath moveto} bind def
/Z {closepath} bind def
/C {setrgbcolor} bind def
/f {rlineto fill} bind def
/vpt2 vpt 2 mul def
/hpt2 hpt 2 mul def
/Lshow {currentpoint stroke M 0 vshift R 
	Blacktext {gsave 0 setgray show grestore} {show} ifelse} def
/Rshow {currentpoint stroke M dup stringwidth pop neg vshift R
	Blacktext {gsave 0 setgray show grestore} {show} ifelse} def
/Cshow {currentpoint stroke M dup stringwidth pop -2 div vshift R 
	Blacktext {gsave 0 setgray show grestore} {show} ifelse} def
/UP {dup vpt_ mul /vpt exch def hpt_ mul /hpt exch def
  /hpt2 hpt 2 mul def /vpt2 vpt 2 mul def} def
/DL {Color {setrgbcolor Solid {pop []} if 0 setdash}
 {pop pop pop 0 setgray Solid {pop []} if 0 setdash} ifelse} def
/BL {stroke userlinewidth 2 mul setlinewidth
	Rounded {1 setlinejoin 1 setlinecap} if} def
/AL {stroke userlinewidth 2 div setlinewidth
	Rounded {1 setlinejoin 1 setlinecap} if} def
/UL {dup gnulinewidth mul /userlinewidth exch def
	dup 1 lt {pop 1} if 10 mul /udl exch def} def
/PL {stroke userlinewidth setlinewidth
	Rounded {1 setlinejoin 1 setlinecap} if} def
% Default Line colors
/LCw {1 1 1} def
/LCb {0 0 0} def
/LCa {0 0 0} def
/LC0 {1 0 0} def
/LC1 {0 1 0} def
/LC2 {0 0 1} def
/LC3 {1 0 1} def
/LC4 {0 1 1} def
/LC5 {1 1 0} def
/LC6 {0 0 0} def
/LC7 {1 0.3 0} def
/LC8 {0.5 0.5 0.5} def
% Default Line Types
/LTw {PL [] 1 setgray} def
/LTb {BL [] LCb DL} def
/LTa {AL [1 udl mul 2 udl mul] 0 setdash LCa setrgbcolor} def
/LT0 {PL [] LC0 DL} def
/LT1 {PL [4 dl1 2 dl2] LC1 DL} def
/LT2 {PL [2 dl1 3 dl2] LC2 DL} def
/LT3 {PL [1 dl1 1.5 dl2] LC3 DL} def
/LT4 {PL [6 dl1 2 dl2 1 dl1 2 dl2] LC4 DL} def
/LT5 {PL [3 dl1 3 dl2 1 dl1 3 dl2] LC5 DL} def
/LT6 {PL [2 dl1 2 dl2 2 dl1 6 dl2] LC6 DL} def
/LT7 {PL [1 dl1 2 dl2 6 dl1 2 dl2 1 dl1 2 dl2] LC7 DL} def
/LT8 {PL [2 dl1 2 dl2 2 dl1 2 dl2 2 dl1 2 dl2 2 dl1 4 dl2] LC8 DL} def
/Pnt {stroke [] 0 setdash gsave 1 setlinecap M 0 0 V stroke grestore} def
/Dia {stroke [] 0 setdash 2 copy vpt add M
  hpt neg vpt neg V hpt vpt neg V
  hpt vpt V hpt neg vpt V closepath stroke
  Pnt} def
/Pls {stroke [] 0 setdash vpt sub M 0 vpt2 V
  currentpoint stroke M
  hpt neg vpt neg R hpt2 0 V stroke
 } def
/Box {stroke [] 0 setdash 2 copy exch hpt sub exch vpt add M
  0 vpt2 neg V hpt2 0 V 0 vpt2 V
  hpt2 neg 0 V closepath stroke
  Pnt} def
/Crs {stroke [] 0 setdash exch hpt sub exch vpt add M
  hpt2 vpt2 neg V currentpoint stroke M
  hpt2 neg 0 R hpt2 vpt2 V stroke} def
/TriU {stroke [] 0 setdash 2 copy vpt 1.12 mul add M
  hpt neg vpt -1.62 mul V
  hpt 2 mul 0 V
  hpt neg vpt 1.62 mul V closepath stroke
  Pnt} def
/Star {2 copy Pls Crs} def
/BoxF {stroke [] 0 setdash exch hpt sub exch vpt add M
  0 vpt2 neg V hpt2 0 V 0 vpt2 V
  hpt2 neg 0 V closepath fill} def
/TriUF {stroke [] 0 setdash vpt 1.12 mul add M
  hpt neg vpt -1.62 mul V
  hpt 2 mul 0 V
  hpt neg vpt 1.62 mul V closepath fill} def
/TriD {stroke [] 0 setdash 2 copy vpt 1.12 mul sub M
  hpt neg vpt 1.62 mul V
  hpt 2 mul 0 V
  hpt neg vpt -1.62 mul V closepath stroke
  Pnt} def
/TriDF {stroke [] 0 setdash vpt 1.12 mul sub M
  hpt neg vpt 1.62 mul V
  hpt 2 mul 0 V
  hpt neg vpt -1.62 mul V closepath fill} def
/DiaF {stroke [] 0 setdash vpt add M
  hpt neg vpt neg V hpt vpt neg V
  hpt vpt V hpt neg vpt V closepath fill} def
/Pent {stroke [] 0 setdash 2 copy gsave
  translate 0 hpt M 4 {72 rotate 0 hpt L} repeat
  closepath stroke grestore Pnt} def
/PentF {stroke [] 0 setdash gsave
  translate 0 hpt M 4 {72 rotate 0 hpt L} repeat
  closepath fill grestore} def
/Circle {stroke [] 0 setdash 2 copy
  hpt 0 360 arc stroke Pnt} def
/CircleF {stroke [] 0 setdash hpt 0 360 arc fill} def
/C0 {BL [] 0 setdash 2 copy moveto vpt 90 450 arc} bind def
/C1 {BL [] 0 setdash 2 copy moveto
	2 copy vpt 0 90 arc closepath fill
	vpt 0 360 arc closepath} bind def
/C2 {BL [] 0 setdash 2 copy moveto
	2 copy vpt 90 180 arc closepath fill
	vpt 0 360 arc closepath} bind def
/C3 {BL [] 0 setdash 2 copy moveto
	2 copy vpt 0 180 arc closepath fill
	vpt 0 360 arc closepath} bind def
/C4 {BL [] 0 setdash 2 copy moveto
	2 copy vpt 180 270 arc closepath fill
	vpt 0 360 arc closepath} bind def
/C5 {BL [] 0 setdash 2 copy moveto
	2 copy vpt 0 90 arc
	2 copy moveto
	2 copy vpt 180 270 arc closepath fill
	vpt 0 360 arc} bind def
/C6 {BL [] 0 setdash 2 copy moveto
	2 copy vpt 90 270 arc closepath fill
	vpt 0 360 arc closepath} bind def
/C7 {BL [] 0 setdash 2 copy moveto
	2 copy vpt 0 270 arc closepath fill
	vpt 0 360 arc closepath} bind def
/C8 {BL [] 0 setdash 2 copy moveto
	2 copy vpt 270 360 arc closepath fill
	vpt 0 360 arc closepath} bind def
/C9 {BL [] 0 setdash 2 copy moveto
	2 copy vpt 270 450 arc closepath fill
	vpt 0 360 arc closepath} bind def
/C10 {BL [] 0 setdash 2 copy 2 copy moveto vpt 270 360 arc closepath fill
	2 copy moveto
	2 copy vpt 90 180 arc closepath fill
	vpt 0 360 arc closepath} bind def
/C11 {BL [] 0 setdash 2 copy moveto
	2 copy vpt 0 180 arc closepath fill
	2 copy moveto
	2 copy vpt 270 360 arc closepath fill
	vpt 0 360 arc closepath} bind def
/C12 {BL [] 0 setdash 2 copy moveto
	2 copy vpt 180 360 arc closepath fill
	vpt 0 360 arc closepath} bind def
/C13 {BL [] 0 setdash 2 copy moveto
	2 copy vpt 0 90 arc closepath fill
	2 copy moveto
	2 copy vpt 180 360 arc closepath fill
	vpt 0 360 arc closepath} bind def
/C14 {BL [] 0 setdash 2 copy moveto
	2 copy vpt 90 360 arc closepath fill
	vpt 0 360 arc} bind def
/C15 {BL [] 0 setdash 2 copy vpt 0 360 arc closepath fill
	vpt 0 360 arc closepath} bind def
/Rec {newpath 4 2 roll moveto 1 index 0 rlineto 0 exch rlineto
	neg 0 rlineto closepath} bind def
/Square {dup Rec} bind def
/Bsquare {vpt sub exch vpt sub exch vpt2 Square} bind def
/S0 {BL [] 0 setdash 2 copy moveto 0 vpt rlineto BL Bsquare} bind def
/S1 {BL [] 0 setdash 2 copy vpt Square fill Bsquare} bind def
/S2 {BL [] 0 setdash 2 copy exch vpt sub exch vpt Square fill Bsquare} bind def
/S3 {BL [] 0 setdash 2 copy exch vpt sub exch vpt2 vpt Rec fill Bsquare} bind def
/S4 {BL [] 0 setdash 2 copy exch vpt sub exch vpt sub vpt Square fill Bsquare} bind def
/S5 {BL [] 0 setdash 2 copy 2 copy vpt Square fill
	exch vpt sub exch vpt sub vpt Square fill Bsquare} bind def
/S6 {BL [] 0 setdash 2 copy exch vpt sub exch vpt sub vpt vpt2 Rec fill Bsquare} bind def
/S7 {BL [] 0 setdash 2 copy exch vpt sub exch vpt sub vpt vpt2 Rec fill
	2 copy vpt Square fill Bsquare} bind def
/S8 {BL [] 0 setdash 2 copy vpt sub vpt Square fill Bsquare} bind def
/S9 {BL [] 0 setdash 2 copy vpt sub vpt vpt2 Rec fill Bsquare} bind def
/S10 {BL [] 0 setdash 2 copy vpt sub vpt Square fill 2 copy exch vpt sub exch vpt Square fill
	Bsquare} bind def
/S11 {BL [] 0 setdash 2 copy vpt sub vpt Square fill 2 copy exch vpt sub exch vpt2 vpt Rec fill
	Bsquare} bind def
/S12 {BL [] 0 setdash 2 copy exch vpt sub exch vpt sub vpt2 vpt Rec fill Bsquare} bind def
/S13 {BL [] 0 setdash 2 copy exch vpt sub exch vpt sub vpt2 vpt Rec fill
	2 copy vpt Square fill Bsquare} bind def
/S14 {BL [] 0 setdash 2 copy exch vpt sub exch vpt sub vpt2 vpt Rec fill
	2 copy exch vpt sub exch vpt Square fill Bsquare} bind def
/S15 {BL [] 0 setdash 2 copy Bsquare fill Bsquare} bind def
/D0 {gsave translate 45 rotate 0 0 S0 stroke grestore} bind def
/D1 {gsave translate 45 rotate 0 0 S1 stroke grestore} bind def
/D2 {gsave translate 45 rotate 0 0 S2 stroke grestore} bind def
/D3 {gsave translate 45 rotate 0 0 S3 stroke grestore} bind def
/D4 {gsave translate 45 rotate 0 0 S4 stroke grestore} bind def
/D5 {gsave translate 45 rotate 0 0 S5 stroke grestore} bind def
/D6 {gsave translate 45 rotate 0 0 S6 stroke grestore} bind def
/D7 {gsave translate 45 rotate 0 0 S7 stroke grestore} bind def
/D8 {gsave translate 45 rotate 0 0 S8 stroke grestore} bind def
/D9 {gsave translate 45 rotate 0 0 S9 stroke grestore} bind def
/D10 {gsave translate 45 rotate 0 0 S10 stroke grestore} bind def
/D11 {gsave translate 45 rotate 0 0 S11 stroke grestore} bind def
/D12 {gsave translate 45 rotate 0 0 S12 stroke grestore} bind def
/D13 {gsave translate 45 rotate 0 0 S13 stroke grestore} bind def
/D14 {gsave translate 45 rotate 0 0 S14 stroke grestore} bind def
/D15 {gsave translate 45 rotate 0 0 S15 stroke grestore} bind def
/DiaE {stroke [] 0 setdash vpt add M
  hpt neg vpt neg V hpt vpt neg V
  hpt vpt V hpt neg vpt V closepath stroke} def
/BoxE {stroke [] 0 setdash exch hpt sub exch vpt add M
  0 vpt2 neg V hpt2 0 V 0 vpt2 V
  hpt2 neg 0 V closepath stroke} def
/TriUE {stroke [] 0 setdash vpt 1.12 mul add M
  hpt neg vpt -1.62 mul V
  hpt 2 mul 0 V
  hpt neg vpt 1.62 mul V closepath stroke} def
/TriDE {stroke [] 0 setdash vpt 1.12 mul sub M
  hpt neg vpt 1.62 mul V
  hpt 2 mul 0 V
  hpt neg vpt -1.62 mul V closepath stroke} def
/PentE {stroke [] 0 setdash gsave
  translate 0 hpt M 4 {72 rotate 0 hpt L} repeat
  closepath stroke grestore} def
/CircE {stroke [] 0 setdash 
  hpt 0 360 arc stroke} def
/Opaque {gsave closepath 1 setgray fill grestore 0 setgray closepath} def
/DiaW {stroke [] 0 setdash vpt add M
  hpt neg vpt neg V hpt vpt neg V
  hpt vpt V hpt neg vpt V Opaque stroke} def
/BoxW {stroke [] 0 setdash exch hpt sub exch vpt add M
  0 vpt2 neg V hpt2 0 V 0 vpt2 V
  hpt2 neg 0 V Opaque stroke} def
/TriUW {stroke [] 0 setdash vpt 1.12 mul add M
  hpt neg vpt -1.62 mul V
  hpt 2 mul 0 V
  hpt neg vpt 1.62 mul V Opaque stroke} def
/TriDW {stroke [] 0 setdash vpt 1.12 mul sub M
  hpt neg vpt 1.62 mul V
  hpt 2 mul 0 V
  hpt neg vpt -1.62 mul V Opaque stroke} def
/PentW {stroke [] 0 setdash gsave
  translate 0 hpt M 4 {72 rotate 0 hpt L} repeat
  Opaque stroke grestore} def
/CircW {stroke [] 0 setdash 
  hpt 0 360 arc Opaque stroke} def
/BoxFill {gsave Rec 1 setgray fill grestore} def
/Density {
  /Fillden exch def
  currentrgbcolor
  /ColB exch def /ColG exch def /ColR exch def
  /ColR ColR Fillden mul Fillden sub 1 add def
  /ColG ColG Fillden mul Fillden sub 1 add def
  /ColB ColB Fillden mul Fillden sub 1 add def
  ColR ColG ColB setrgbcolor} def
/BoxColFill {gsave Rec PolyFill} def
/PolyFill {gsave Density fill grestore grestore} def
/h {rlineto rlineto rlineto gsave fill grestore} bind def
%
% PostScript Level 1 Pattern Fill routine for rectangles
% Usage: x y w h s a XX PatternFill
%	x,y = lower left corner of box to be filled
%	w,h = width and height of box
%	  a = angle in degrees between lines and x-axis
%	 XX = 0/1 for no/yes cross-hatch
%
/PatternFill {gsave /PFa [ 9 2 roll ] def
  PFa 0 get PFa 2 get 2 div add PFa 1 get PFa 3 get 2 div add translate
  PFa 2 get -2 div PFa 3 get -2 div PFa 2 get PFa 3 get Rec
  gsave 1 setgray fill grestore clip
  currentlinewidth 0.5 mul setlinewidth
  /PFs PFa 2 get dup mul PFa 3 get dup mul add sqrt def
  0 0 M PFa 5 get rotate PFs -2 div dup translate
  0 1 PFs PFa 4 get div 1 add floor cvi
	{PFa 4 get mul 0 M 0 PFs V} for
  0 PFa 6 get ne {
	0 1 PFs PFa 4 get div 1 add floor cvi
	{PFa 4 get mul 0 2 1 roll M PFs 0 V} for
 } if
  stroke grestore} def
%
/languagelevel where
 {pop languagelevel} {1} ifelse
 2 lt
	{/InterpretLevel1 true def}
	{/InterpretLevel1 Level1 def}
 ifelse
%
% PostScript level 2 pattern fill definitions
%
/Level2PatternFill {
/Tile8x8 {/PaintType 2 /PatternType 1 /TilingType 1 /BBox [0 0 8 8] /XStep 8 /YStep 8}
	bind def
/KeepColor {currentrgbcolor [/Pattern /DeviceRGB] setcolorspace} bind def
<< Tile8x8
 /PaintProc {0.5 setlinewidth pop 0 0 M 8 8 L 0 8 M 8 0 L stroke} 
>> matrix makepattern
/Pat1 exch def
<< Tile8x8
 /PaintProc {0.5 setlinewidth pop 0 0 M 8 8 L 0 8 M 8 0 L stroke
	0 4 M 4 8 L 8 4 L 4 0 L 0 4 L stroke}
>> matrix makepattern
/Pat2 exch def
<< Tile8x8
 /PaintProc {0.5 setlinewidth pop 0 0 M 0 8 L
	8 8 L 8 0 L 0 0 L fill}
>> matrix makepattern
/Pat3 exch def
<< Tile8x8
 /PaintProc {0.5 setlinewidth pop -4 8 M 8 -4 L
	0 12 M 12 0 L stroke}
>> matrix makepattern
/Pat4 exch def
<< Tile8x8
 /PaintProc {0.5 setlinewidth pop -4 0 M 8 12 L
	0 -4 M 12 8 L stroke}
>> matrix makepattern
/Pat5 exch def
<< Tile8x8
 /PaintProc {0.5 setlinewidth pop -2 8 M 4 -4 L
	0 12 M 8 -4 L 4 12 M 10 0 L stroke}
>> matrix makepattern
/Pat6 exch def
<< Tile8x8
 /PaintProc {0.5 setlinewidth pop -2 0 M 4 12 L
	0 -4 M 8 12 L 4 -4 M 10 8 L stroke}
>> matrix makepattern
/Pat7 exch def
<< Tile8x8
 /PaintProc {0.5 setlinewidth pop 8 -2 M -4 4 L
	12 0 M -4 8 L 12 4 M 0 10 L stroke}
>> matrix makepattern
/Pat8 exch def
<< Tile8x8
 /PaintProc {0.5 setlinewidth pop 0 -2 M 12 4 L
	-4 0 M 12 8 L -4 4 M 8 10 L stroke}
>> matrix makepattern
/Pat9 exch def
/Pattern1 {PatternBgnd KeepColor Pat1 setpattern} bind def
/Pattern2 {PatternBgnd KeepColor Pat2 setpattern} bind def
/Pattern3 {PatternBgnd KeepColor Pat3 setpattern} bind def
/Pattern4 {PatternBgnd KeepColor Landscape {Pat5} {Pat4} ifelse setpattern} bind def
/Pattern5 {PatternBgnd KeepColor Landscape {Pat4} {Pat5} ifelse setpattern} bind def
/Pattern6 {PatternBgnd KeepColor Landscape {Pat9} {Pat6} ifelse setpattern} bind def
/Pattern7 {PatternBgnd KeepColor Landscape {Pat8} {Pat7} ifelse setpattern} bind def
} def
%
%
%End of PostScript Level 2 code
%
/PatternBgnd {
  TransparentPatterns {} {gsave 1 setgray fill grestore} ifelse
} def
%
% Substitute for Level 2 pattern fill codes with
% grayscale if Level 2 support is not selected.
%
/Level1PatternFill {
/Pattern1 {0.250 Density} bind def
/Pattern2 {0.500 Density} bind def
/Pattern3 {0.750 Density} bind def
/Pattern4 {0.125 Density} bind def
/Pattern5 {0.375 Density} bind def
/Pattern6 {0.625 Density} bind def
/Pattern7 {0.875 Density} bind def
} def
%
% Now test for support of Level 2 code
%
Level1 {Level1PatternFill} {Level2PatternFill} ifelse
%
/Symbol-Oblique /Symbol findfont [1 0 .167 1 0 0] makefont
dup length dict begin {1 index /FID eq {pop pop} {def} ifelse} forall
currentdict end definefont pop
/MFshow {
   { dup 5 get 3 ge
     { 5 get 3 eq {gsave} {grestore} ifelse }
     {dup dup 0 get findfont exch 1 get scalefont setfont
     [ currentpoint ] exch dup 2 get 0 exch R dup 5 get 2 ne {dup dup 6
     get exch 4 get {show} {stringwidth pop 0 R} ifelse }if dup 5 get 0 eq
     {dup 3 get {2 get neg 0 exch R pop} {pop aload pop M} ifelse} {dup 5
     get 1 eq {dup 2 get exch dup 3 get exch 6 get stringwidth pop -2 div
     dup 0 R} {dup 6 get stringwidth pop -2 div 0 R 6 get
     show 2 index {aload pop M neg 3 -1 roll neg R pop pop} {pop pop pop
     pop aload pop M} ifelse }ifelse }ifelse }
     ifelse }
   forall} bind def
/MFwidth {0 exch { dup 5 get 3 ge { 5 get 3 eq { 0 } { pop } ifelse }
 {dup 3 get{dup dup 0 get findfont exch 1 get scalefont setfont
     6 get stringwidth pop add} {pop} ifelse} ifelse} forall} bind def
/MLshow { currentpoint stroke M
  0 exch R
  Blacktext {gsave 0 setgray MFshow grestore} {MFshow} ifelse } bind def
/MRshow { currentpoint stroke M
  exch dup MFwidth neg 3 -1 roll R
  Blacktext {gsave 0 setgray MFshow grestore} {MFshow} ifelse } bind def
/MCshow { currentpoint stroke M
  exch dup MFwidth -2 div 3 -1 roll R
  Blacktext {gsave 0 setgray MFshow grestore} {MFshow} ifelse } bind def
/XYsave    { [( ) 1 2 true false 3 ()] } bind def
/XYrestore { [( ) 1 2 true false 4 ()] } bind def
end
%%EndProlog
gnudict begin
gsave
50 50 translate
0.050 0.050 scale
0 setgray
newpath
(Helvetica) findfont 150 scalefont setfont
1.000 UL
LTb
945 450 M
63 0 V
5937 0 R
-63 0 V
stroke
855 450 M
[ [(Helvetica) 150.0 0.0 true true 0 ( 0)]
] -50.0 MRshow
1.000 UL
LTb
945 910 M
63 0 V
5937 0 R
-63 0 V
stroke
855 910 M
[ [(Helvetica) 150.0 0.0 true true 0 ( 1e-09)]
] -50.0 MRshow
1.000 UL
LTb
945 1370 M
63 0 V
5937 0 R
-63 0 V
stroke
855 1370 M
[ [(Helvetica) 150.0 0.0 true true 0 ( 2e-09)]
] -50.0 MRshow
1.000 UL
LTb
945 1830 M
63 0 V
5937 0 R
-63 0 V
stroke
855 1830 M
[ [(Helvetica) 150.0 0.0 true true 0 ( 3e-09)]
] -50.0 MRshow
1.000 UL
LTb
945 2290 M
63 0 V
5937 0 R
-63 0 V
stroke
855 2290 M
[ [(Helvetica) 150.0 0.0 true true 0 ( 4e-09)]
] -50.0 MRshow
1.000 UL
LTb
945 2750 M
63 0 V
5937 0 R
-63 0 V
stroke
855 2750 M
[ [(Helvetica) 150.0 0.0 true true 0 ( 5e-09)]
] -50.0 MRshow
1.000 UL
LTb
945 3210 M
63 0 V
5937 0 R
-63 0 V
stroke
855 3210 M
[ [(Helvetica) 150.0 0.0 true true 0 ( 6e-09)]
] -50.0 MRshow
1.000 UL
LTb
945 3670 M
63 0 V
5937 0 R
-63 0 V
stroke
855 3670 M
[ [(Helvetica) 150.0 0.0 true true 0 ( 7e-09)]
] -50.0 MRshow
1.000 UL
LTb
945 4130 M
63 0 V
5937 0 R
-63 0 V
stroke
855 4130 M
[ [(Helvetica) 150.0 0.0 true true 0 ( 8e-09)]
] -50.0 MRshow
1.000 UL
LTb
945 4590 M
63 0 V
5937 0 R
-63 0 V
stroke
855 4590 M
[ [(Helvetica) 150.0 0.0 true true 0 ( 9e-09)]
] -50.0 MRshow
1.000 UL
LTb
945 450 M
0 63 V
0 4077 R
0 -63 V
stroke
945 300 M
[ [(Helvetica) 150.0 0.0 true true 0 ( 0)]
] -50.0 MCshow
1.000 UL
LTb
1545 450 M
0 63 V
0 4077 R
0 -63 V
stroke
1545 300 M
[ [(Helvetica) 150.0 0.0 true true 0 ( 500)]
] -50.0 MCshow
1.000 UL
LTb
2145 450 M
0 63 V
0 4077 R
0 -63 V
stroke
2145 300 M
[ [(Helvetica) 150.0 0.0 true true 0 ( 1000)]
] -50.0 MCshow
1.000 UL
LTb
2745 450 M
0 63 V
0 4077 R
0 -63 V
stroke
2745 300 M
[ [(Helvetica) 150.0 0.0 true true 0 ( 1500)]
] -50.0 MCshow
1.000 UL
LTb
3345 450 M
0 63 V
0 4077 R
0 -63 V
stroke
3345 300 M
[ [(Helvetica) 150.0 0.0 true true 0 ( 2000)]
] -50.0 MCshow
1.000 UL
LTb
3945 450 M
0 63 V
0 4077 R
0 -63 V
stroke
3945 300 M
[ [(Helvetica) 150.0 0.0 true true 0 ( 2500)]
] -50.0 MCshow
1.000 UL
LTb
4545 450 M
0 63 V
0 4077 R
0 -63 V
stroke
4545 300 M
[ [(Helvetica) 150.0 0.0 true true 0 ( 3000)]
] -50.0 MCshow
1.000 UL
LTb
5145 450 M
0 63 V
0 4077 R
0 -63 V
stroke
5145 300 M
[ [(Helvetica) 150.0 0.0 true true 0 ( 3500)]
] -50.0 MCshow
1.000 UL
LTb
5745 450 M
0 63 V
0 4077 R
0 -63 V
stroke
5745 300 M
[ [(Helvetica) 150.0 0.0 true true 0 ( 4000)]
] -50.0 MCshow
1.000 UL
LTb
6345 450 M
0 63 V
0 4077 R
0 -63 V
stroke
6345 300 M
[ [(Helvetica) 150.0 0.0 true true 0 ( 4500)]
] -50.0 MCshow
1.000 UL
LTb
6945 450 M
0 63 V
0 4077 R
0 -63 V
stroke
6945 300 M
[ [(Helvetica) 150.0 0.0 true true 0 ( 5000)]
] -50.0 MCshow
1.000 UL
LTb
1.000 UL
LTb
945 4590 N
945 450 L
6000 0 V
0 4140 V
-6000 0 V
Z stroke
LCb setrgbcolor
150 2520 M
currentpoint gsave translate 90 rotate 0 0 moveto
[ [(Helvetica) 150.0 0.0 true true 0 (Area del triangulo)]
] -50.0 MCshow
grestore
LTb
LCb setrgbcolor
3945 75 M
[ [(Helvetica) 150.0 0.0 true true 0 (I-esimo triangulo de la familia)]
] -50.0 MCshow
LTb
3945 4815 M
[ [(Helvetica) 150.0 0.0 true true 0 (Metodos aplicados a la familia de triangulos numero 2 que tiende a cero con 30 bits de mantisa)]
] -50.0 MCshow
1.000 UP
1.000 UL
LTb
1.000 UL
LT0
LTb
6252 4452 M
[ [(Helvetica) 150.0 0.0 true true 0 (Diferencias Faciales revisado)]
] -50.0 MRshow
LT0
6342 4452 M
423 0 V
2448 4590 M
1 -1 V
1 -9 V
1 -8 V
1 -8 V
1 -8 V
2 -8 V
1 -9 V
1 -8 V
1 -8 V
1 -8 V
2 -8 V
1 -8 V
1 -8 V
1 -8 V
1 -8 V
2 -8 V
1 -8 V
1 -8 V
1 -7 V
1 -8 V
2 -8 V
1 -8 V
1 -8 V
1 -7 V
1 -8 V
2 -8 V
1 -8 V
1 -7 V
1 -8 V
1 -8 V
2 -7 V
1 -8 V
1 -7 V
1 -8 V
1 -7 V
2 -8 V
1 -7 V
1 -8 V
1 -7 V
1 -8 V
2 -7 V
1 -8 V
1 -7 V
1 -7 V
1 -8 V
2 -7 V
1 -7 V
1 -7 V
1 -8 V
1 -7 V
2 -7 V
1 -7 V
1 -7 V
1 -8 V
1 -7 V
2 -7 V
1 -7 V
1 -7 V
1 -7 V
1 -7 V
2 -7 V
1 -7 V
1 -7 V
1 -7 V
1 -7 V
2 -7 V
1 -7 V
1 -7 V
1 -7 V
1 -6 V
2 -7 V
1 -7 V
1 -7 V
1 -7 V
1 -6 V
2 -7 V
1 -7 V
1 -7 V
1 -6 V
1 -7 V
2 -7 V
1 -6 V
1 -7 V
1 -7 V
1 -6 V
2 -7 V
1 -6 V
1 -7 V
1 -6 V
1 -7 V
2 -6 V
1 -7 V
1 -6 V
1 -7 V
1 -6 V
2 -7 V
1 -6 V
1 -6 V
1 -7 V
1 -6 V
2 -6 V
1 -7 V
2571 3853 L
1 -6 V
1 -6 V
2 -7 V
1 -6 V
1 -6 V
1 -6 V
1 -6 V
2 -7 V
1 -6 V
1 -6 V
1 -6 V
1 -6 V
2 -6 V
1 -6 V
1 -6 V
1 -6 V
1 -6 V
2 -6 V
1 -6 V
1 -6 V
1 -6 V
1 -6 V
2 -6 V
1 -6 V
1 -6 V
1 -6 V
1 -6 V
2 -6 V
1 -5 V
1 -6 V
1 -6 V
1 -6 V
2 -6 V
1 -5 V
1 -6 V
1 -6 V
1 -6 V
2 -5 V
1 -6 V
1 -6 V
1 -5 V
1 -6 V
2 -6 V
1 -5 V
1 -6 V
1 -5 V
1 -6 V
2 -6 V
1 -5 V
1 -6 V
1 -5 V
1 -6 V
2 -5 V
1 -6 V
1 -5 V
1 -6 V
1 -5 V
2 -5 V
1 -6 V
1 -5 V
1 -6 V
1 -5 V
2 -5 V
1 -6 V
1 -5 V
1 -5 V
1 -6 V
2 -5 V
1 -5 V
1 -6 V
1 -5 V
1 -5 V
2 -5 V
1 -5 V
1 -6 V
1 -5 V
1 -5 V
2 -5 V
1 -5 V
1 -6 V
1 -5 V
1 -5 V
2 -5 V
1 -5 V
1 -5 V
1 -5 V
1 -5 V
2 -5 V
1 -5 V
1 -5 V
1 -5 V
1 -5 V
2 -5 V
1 -5 V
1 -5 V
1 -5 V
1 -5 V
2 -5 V
1 -5 V
1 -5 V
1 -5 V
1 -5 V
2 -4 V
1 -5 V
2697 3274 L
1 -5 V
1 -5 V
2 -5 V
1 -4 V
1 -5 V
1 -5 V
1 -5 V
2 -4 V
1 -5 V
1 -5 V
1 -5 V
1 -4 V
2 -5 V
1 -5 V
1 -4 V
1 -5 V
1 -5 V
2 -4 V
1 -5 V
1 -5 V
1 -4 V
1 -5 V
2 -4 V
1 -5 V
1 -4 V
1 -5 V
1 -5 V
2 -4 V
1 -5 V
1 -4 V
1 -5 V
1 -4 V
2 -5 V
1 -4 V
1 -5 V
1 -4 V
1 -4 V
2 -5 V
1 -4 V
1 -5 V
1 -4 V
1 -4 V
2 -5 V
1 -4 V
1 -5 V
1 -4 V
1 -4 V
2 -4 V
1 -5 V
1 -4 V
1 -4 V
1 -5 V
2 -4 V
1 -4 V
1 -4 V
1 -5 V
1 -4 V
2 -4 V
1 -4 V
1 -5 V
1 -4 V
1 -4 V
2 -4 V
1 -4 V
1 -4 V
1 -5 V
1 -4 V
2 -4 V
1 -4 V
1 -4 V
1 -4 V
1 -4 V
2 -4 V
1 -4 V
1 -5 V
1 -4 V
1 -4 V
2 -4 V
1 -4 V
1 -4 V
1 -4 V
1 -4 V
2 -4 V
1 -4 V
1 -4 V
1 -4 V
1 -4 V
2 -4 V
1 -3 V
1 -4 V
1 -4 V
1 -4 V
2 -4 V
1 -4 V
1 -4 V
1 -4 V
1 -4 V
2 -3 V
1 -4 V
1 -4 V
1 -4 V
1 -4 V
2 -4 V
1 -3 V
2823 2824 L
1 -4 V
1 -4 V
2 -4 V
1 -3 V
1 -4 V
1 -4 V
1 -4 V
2 -3 V
1 -4 V
1 -4 V
1 -3 V
1 -4 V
2 -4 V
1 -3 V
1 -4 V
1 -4 V
1 -3 V
2 -4 V
1 -4 V
1 -3 V
1 -4 V
1 -4 V
2 -3 V
1 -4 V
1 -3 V
1 -4 V
1 -4 V
2 -3 V
1 -4 V
1 -3 V
1 -4 V
1 -3 V
2 -4 V
1 -3 V
1 -4 V
1 -3 V
1 -4 V
2 -3 V
1 -4 V
1 -3 V
1 -4 V
1 -3 V
2 -4 V
1 -3 V
1 -4 V
1 -3 V
1 -3 V
2 -4 V
1 -3 V
1 -4 V
1 -3 V
1 -3 V
2 -4 V
1 -3 V
1 -4 V
1 -3 V
1 -3 V
2 -4 V
1 -3 V
1 -3 V
1 -4 V
1 -3 V
2 -3 V
1 -4 V
1 -3 V
1 -3 V
1 -3 V
2 -4 V
1 -3 V
1 -3 V
1 -3 V
1 -4 V
2 -3 V
1 -3 V
1 -3 V
1 -4 V
1 -3 V
2 -3 V
1 -3 V
1 -3 V
1 -4 V
1 -3 V
2 -3 V
1 -3 V
1 -3 V
1 -3 V
1 -4 V
2 -3 V
1 -3 V
1 -3 V
1 -3 V
1 -3 V
2 -3 V
1 -3 V
1 -3 V
1 -3 V
1 -4 V
2 -3 V
1 -3 V
1 -3 V
1 -3 V
1 -3 V
2 -3 V
1 -3 V
2949 2468 L
1 -3 V
1 -3 V
2 -3 V
1 -3 V
1 -3 V
1 -3 V
1 -3 V
2 -3 V
1 -3 V
1 -3 V
1 -3 V
1 -3 V
2 -3 V
1 -3 V
1 -3 V
1 -2 V
1 -3 V
2 -3 V
1 -3 V
1 -3 V
1 -3 V
1 -3 V
2 -3 V
1 -3 V
1 -3 V
1 -2 V
1 -3 V
2 -3 V
1 -3 V
1 -3 V
1 -3 V
1 -2 V
2 -3 V
1 -3 V
1 -3 V
1 -3 V
1 -3 V
2 -2 V
1 -3 V
1 -3 V
1 -3 V
1 -2 V
2 -3 V
1 -3 V
1 -3 V
1 -2 V
1 -3 V
2 -3 V
1 -3 V
1 -2 V
1 -3 V
1 -3 V
2 -3 V
1 -2 V
1 -3 V
1 -3 V
1 -2 V
2 -3 V
1 -3 V
1 -2 V
1 -3 V
1 -3 V
2 -2 V
1 -3 V
1 -3 V
1 -2 V
1 -3 V
2 -3 V
1 -2 V
1 -3 V
1 -2 V
1 -3 V
2 -3 V
1 -2 V
1 -3 V
1 -2 V
1 -3 V
2 -3 V
1 -2 V
1 -3 V
1 -2 V
1 -3 V
2 -2 V
1 -3 V
1 -2 V
1 -3 V
1 -3 V
2 -2 V
1 -3 V
1 -2 V
1 -3 V
1 -2 V
2 -3 V
1 -2 V
1 -3 V
1 -2 V
1 -3 V
2 -2 V
1 -3 V
1 -2 V
1 -2 V
1 -3 V
2 -2 V
1 -3 V
3075 2183 L
1 -3 V
1 -2 V
2 -3 V
1 -2 V
1 -2 V
1 -3 V
1 -2 V
2 -3 V
1 -2 V
1 -2 V
1 -3 V
1 -2 V
2 -3 V
1 -2 V
1 -2 V
1 -3 V
1 -2 V
2 -2 V
1 -3 V
1 -2 V
1 -2 V
1 -3 V
2 -2 V
1 -2 V
1 -3 V
1 -2 V
1 -2 V
2 -3 V
1 -2 V
1 -2 V
1 -3 V
1 -2 V
2 -2 V
1 -3 V
1 -2 V
1 -2 V
1 -2 V
2 -3 V
1 -2 V
1 -2 V
1 -2 V
1 -3 V
2 -2 V
1 -2 V
1 -2 V
1 -3 V
1 -2 V
2 -2 V
1 -2 V
1 -3 V
1 -2 V
1 -2 V
2 -2 V
1 -2 V
1 -3 V
1 -2 V
1 -2 V
2 -2 V
1 -2 V
1 -2 V
1 -3 V
1 -2 V
2 -2 V
1 -2 V
1 -2 V
1 -2 V
1 -3 V
2 -2 V
1 -2 V
1 -2 V
1 -2 V
1 -2 V
2 -2 V
1 -2 V
1 -3 V
1 -2 V
1 -2 V
2 -2 V
1 -2 V
1 -2 V
1 -2 V
1 -2 V
2 -2 V
1 -2 V
1 -2 V
1 -3 V
1 -2 V
2 -2 V
1 -2 V
1 -2 V
1 -2 V
1 -2 V
2 -2 V
1 -2 V
1 -2 V
1 -2 V
1 -2 V
2 -2 V
1 -2 V
1 -2 V
1 -2 V
1 -2 V
2 -2 V
1 -2 V
3201 1951 L
1 -2 V
1 -2 V
2 -2 V
1 -2 V
1 -2 V
1 -2 V
1 -2 V
2 -2 V
1 -2 V
1 -2 V
1 -2 V
1 -2 V
2 -2 V
1 -2 V
1 -2 V
1 -2 V
1 -2 V
2 -1 V
1 -2 V
1 -2 V
1 -2 V
1 -2 V
2 -2 V
1 -2 V
1 -2 V
1 -2 V
1 -2 V
2 -2 V
1 -2 V
1 -1 V
1 -2 V
1 -2 V
2 -2 V
1 -2 V
1 -2 V
1 -2 V
1 -2 V
2 -1 V
1 -2 V
1 -2 V
1 -2 V
1 -2 V
2 -2 V
1 -2 V
1 -1 V
1 -2 V
1 -2 V
2 -2 V
1 -2 V
1 -1 V
1 -2 V
1 -2 V
2 -2 V
1 -2 V
1 -2 V
1 -1 V
1 -2 V
2 -2 V
1 -2 V
1 -2 V
1 -1 V
1 -2 V
2 -2 V
1 -2 V
1 -1 V
1 -2 V
1 -2 V
2 -2 V
1 -1 V
1 -2 V
1 -2 V
1 -2 V
2 -2 V
1 -1 V
1 -2 V
1 -2 V
1 -1 V
2 -2 V
1 -2 V
1 -2 V
1 -1 V
1 -2 V
2 -2 V
1 -2 V
1 -1 V
1 -2 V
1 -2 V
2 -1 V
1 -2 V
1 -2 V
1 -1 V
1 -2 V
2 -2 V
1 -2 V
1 -1 V
1 -2 V
1 -2 V
2 -1 V
1 -2 V
1 -2 V
1 -1 V
1 -2 V
2 -2 V
1 -1 V
3327 1760 L
1 -1 V
1 -2 V
2 -2 V
1 -1 V
1 -2 V
1 -2 V
1 -1 V
2 -2 V
1 -2 V
1 -1 V
1 -2 V
1 -1 V
2 -2 V
1 -2 V
1 -1 V
1 -2 V
1 -1 V
2 -2 V
1 -2 V
1 -1 V
1 -2 V
1 -1 V
2 -2 V
1 -2 V
1 -1 V
1 -2 V
1 -1 V
2 -2 V
1 -1 V
1 -2 V
1 -2 V
1 -1 V
2 -2 V
1 -1 V
1 -2 V
1 -1 V
1 -2 V
2 -1 V
1 -2 V
1 -2 V
1 -1 V
1 -2 V
2 -1 V
1 -2 V
1 -1 V
1 -2 V
1 -1 V
2 -2 V
1 -1 V
1 -2 V
1 -1 V
1 -2 V
2 -1 V
1 -2 V
1 -1 V
1 -2 V
1 -1 V
2 -2 V
1 -1 V
1 -2 V
1 -1 V
1 -2 V
2 -1 V
1 -2 V
1 -1 V
1 -2 V
1 -1 V
2 -2 V
1 -1 V
1 -2 V
1 -1 V
1 -1 V
2 -2 V
1 -1 V
1 -2 V
1 -1 V
1 -2 V
2 -1 V
1 -2 V
1 -1 V
1 -1 V
1 -2 V
2 -1 V
1 -2 V
1 -1 V
1 -2 V
1 -1 V
2 -1 V
1 -2 V
1 -1 V
1 -2 V
1 -1 V
2 -2 V
1 -1 V
1 -1 V
1 -2 V
1 -1 V
2 -2 V
1 -1 V
1 -1 V
1 -2 V
1 -1 V
2 -1 V
1 -2 V
3453 1602 L
1 -2 V
1 -1 V
2 -1 V
1 -2 V
1 -1 V
1 -1 V
1 -2 V
2 -1 V
1 -2 V
1 -1 V
1 -1 V
1 -2 V
2 -1 V
1 -1 V
1 -2 V
1 -1 V
1 -1 V
2 -2 V
1 -1 V
1 -1 V
1 -2 V
1 -1 V
2 -1 V
1 -2 V
1 -1 V
1 -1 V
1 -2 V
2 -1 V
1 -1 V
1 -2 V
1 -1 V
1 -1 V
2 -1 V
1 -2 V
1 -1 V
1 -1 V
1 -2 V
2 -1 V
1 -1 V
1 -2 V
1 -1 V
1 -1 V
2 -1 V
1 -2 V
1 -1 V
1 -1 V
1 -2 V
2 -1 V
1 -1 V
1 -1 V
1 -2 V
1 -1 V
2 -1 V
1 -1 V
1 -2 V
1 -1 V
1 -1 V
2 -1 V
1 -2 V
1 -1 V
1 -1 V
1 -1 V
2 -2 V
1 -1 V
1 -1 V
1 -1 V
1 -2 V
2 -1 V
1 -1 V
1 -1 V
1 -2 V
1 -1 V
2 -1 V
1 -1 V
1 -1 V
1 -2 V
1 -1 V
2 -1 V
1 -1 V
1 -1 V
1 -2 V
1 -1 V
2 -1 V
1 -1 V
1 -1 V
1 -2 V
1 -1 V
2 -1 V
1 -1 V
1 -1 V
1 -2 V
1 -1 V
2 -1 V
1 -1 V
1 -1 V
1 -2 V
1 -1 V
2 -1 V
1 -1 V
1 -1 V
1 -1 V
1 -2 V
2 -1 V
1 -1 V
3579 1469 L
1 -1 V
1 -1 V
2 -2 V
1 -1 V
1 -1 V
1 -1 V
1 -1 V
2 -1 V
1 -1 V
1 -2 V
1 -1 V
1 -1 V
2 -1 V
1 -1 V
1 -1 V
1 -1 V
1 -2 V
2 -1 V
1 -1 V
1 -1 V
1 -1 V
1 -1 V
2 -1 V
1 -1 V
1 -2 V
1 -1 V
1 -1 V
2 -1 V
1 -1 V
1 -1 V
1 -1 V
1 -1 V
2 -1 V
1 -1 V
1 -2 V
1 -1 V
1 -1 V
2 -1 V
1 -1 V
1 -1 V
1 -1 V
1 -1 V
2 -1 V
1 -1 V
1 -1 V
1 -2 V
1 -1 V
2 -1 V
1 -1 V
1 -1 V
1 -1 V
1 -1 V
2 -1 V
1 -1 V
1 -1 V
1 -1 V
1 -1 V
2 -1 V
1 -1 V
1 -2 V
1 -1 V
1 -1 V
2 -1 V
1 -1 V
1 -1 V
1 -1 V
1 -1 V
2 -1 V
1 -1 V
1 -1 V
1 -1 V
1 -1 V
2 -1 V
1 -1 V
1 -1 V
1 -1 V
1 -1 V
2 -1 V
1 -1 V
1 -1 V
1 -1 V
1 -1 V
2 -1 V
1 -1 V
1 -1 V
1 -1 V
1 -1 V
2 -1 V
1 -1 V
1 -1 V
1 -1 V
1 -1 V
2 -1 V
1 -1 V
1 -1 V
1 -1 V
1 -1 V
2 -1 V
1 -1 V
1 -1 V
1 -1 V
1 -1 V
2 -1 V
1 -1 V
3705 1357 L
1 -1 V
1 -1 V
2 -1 V
1 -1 V
1 -1 V
1 -1 V
1 -1 V
2 -1 V
1 -1 V
1 -1 V
1 -1 V
1 -1 V
2 -1 V
1 -1 V
1 -1 V
1 -1 V
1 -1 V
2 -1 V
1 -1 V
1 -1 V
1 -1 V
1 -1 V
2 -1 V
1 -1 V
1 -1 V
1 -1 V
1 0 V
2 -1 V
1 -1 V
1 -1 V
1 -1 V
1 -1 V
2 -1 V
1 -1 V
1 -1 V
1 -1 V
1 -1 V
2 -1 V
1 -1 V
1 -1 V
1 -1 V
1 -1 V
2 0 V
1 -1 V
1 -1 V
1 -1 V
1 -1 V
2 -1 V
1 -1 V
1 -1 V
1 -1 V
1 -1 V
2 -1 V
1 -1 V
1 0 V
1 -1 V
1 -1 V
2 -1 V
1 -1 V
1 -1 V
1 -1 V
1 -1 V
2 -1 V
1 -1 V
1 0 V
1 -1 V
1 -1 V
2 -1 V
1 -1 V
1 -1 V
1 -1 V
1 -1 V
2 -1 V
1 0 V
1 -1 V
1 -1 V
1 -1 V
2 -1 V
1 -1 V
1 -1 V
1 -1 V
1 0 V
2 -1 V
1 -1 V
1 -1 V
1 -1 V
1 -1 V
2 -1 V
1 -1 V
1 0 V
1 -1 V
1 -1 V
2 -1 V
1 -1 V
1 -1 V
1 -1 V
1 0 V
2 -1 V
1 -1 V
1 -1 V
1 -1 V
1 -1 V
2 0 V
1 -1 V
3831 1261 L
1 -1 V
1 -1 V
2 -1 V
1 -1 V
1 0 V
1 -1 V
1 -1 V
2 -1 V
1 -1 V
1 -1 V
1 0 V
1 -1 V
2 -1 V
1 -1 V
1 -1 V
1 0 V
1 -1 V
2 -1 V
1 -1 V
1 -1 V
1 -1 V
1 0 V
2 -1 V
1 -1 V
1 -1 V
1 -1 V
1 0 V
2 -1 V
1 -1 V
1 -1 V
1 -1 V
1 -1 V
2 0 V
1 -1 V
1 -1 V
1 -1 V
1 -1 V
2 0 V
1 -1 V
1 -1 V
1 -1 V
1 0 V
2 -1 V
1 -1 V
1 -1 V
1 -1 V
1 0 V
2 -1 V
1 -1 V
1 -1 V
1 -1 V
1 0 V
2 -1 V
1 -1 V
1 -1 V
1 0 V
1 -1 V
2 -1 V
1 -1 V
1 -1 V
1 0 V
1 -1 V
2 -1 V
1 -1 V
1 0 V
1 -1 V
1 -1 V
2 -1 V
1 -1 V
1 0 V
1 -1 V
1 -1 V
2 -1 V
1 0 V
1 -1 V
1 -1 V
1 -1 V
2 0 V
1 -1 V
1 -1 V
1 -1 V
1 0 V
2 -1 V
1 -1 V
1 -1 V
1 0 V
1 -1 V
2 -1 V
1 -1 V
1 0 V
1 -1 V
1 -1 V
2 -1 V
1 0 V
1 -1 V
1 -1 V
1 0 V
2 -1 V
1 -1 V
1 -1 V
1 0 V
1 -1 V
2 -1 V
1 -1 V
3957 1179 L
1 -1 V
1 -1 V
2 0 V
1 -1 V
1 -1 V
1 -1 V
1 0 V
2 -1 V
1 -1 V
1 -1 V
1 0 V
1 -1 V
2 -1 V
1 0 V
1 -1 V
1 -1 V
1 -1 V
2 0 V
1 -1 V
1 -1 V
1 0 V
1 -1 V
2 -1 V
1 0 V
1 -1 V
1 -1 V
1 -1 V
2 0 V
1 -1 V
1 -1 V
1 0 V
1 -1 V
2 -1 V
1 0 V
1 -1 V
1 -1 V
1 0 V
2 -1 V
1 -1 V
1 -1 V
1 0 V
1 -1 V
2 -1 V
1 0 V
1 -1 V
1 -1 V
1 0 V
2 -1 V
1 -1 V
1 0 V
1 -1 V
1 -1 V
2 0 V
1 -1 V
1 -1 V
1 0 V
1 -1 V
2 -1 V
1 0 V
1 -1 V
1 -1 V
1 0 V
2 -1 V
1 -1 V
1 0 V
1 -1 V
1 -1 V
2 0 V
1 -1 V
1 -1 V
1 0 V
1 -1 V
2 -1 V
1 0 V
1 -1 V
1 -1 V
1 0 V
2 -1 V
1 -1 V
1 0 V
1 -1 V
1 -1 V
2 0 V
1 -1 V
1 -1 V
1 0 V
1 -1 V
2 0 V
1 -1 V
1 -1 V
1 0 V
1 -1 V
2 -1 V
1 0 V
1 -1 V
1 -1 V
1 0 V
2 -1 V
1 0 V
1 -1 V
1 -1 V
1 0 V
2 -1 V
1 -1 V
4083 1108 L
1 -1 V
1 -1 V
2 0 V
1 -1 V
1 0 V
1 -1 V
1 -1 V
2 0 V
1 -1 V
1 -1 V
1 0 V
1 -1 V
2 0 V
1 -1 V
1 -1 V
1 0 V
1 -1 V
2 0 V
1 -1 V
1 -1 V
1 0 V
1 -1 V
2 -1 V
1 0 V
1 -1 V
1 0 V
1 -1 V
2 -1 V
1 0 V
1 -1 V
1 0 V
1 -1 V
2 -1 V
1 0 V
1 -1 V
1 0 V
1 -1 V
2 -1 V
1 0 V
1 -1 V
1 0 V
1 -1 V
2 -1 V
1 0 V
1 -1 V
1 0 V
1 -1 V
2 -1 V
1 0 V
1 -1 V
1 0 V
1 -1 V
2 0 V
1 -1 V
1 -1 V
1 0 V
1 -1 V
2 0 V
1 -1 V
1 -1 V
1 0 V
1 -1 V
2 0 V
1 -1 V
1 0 V
1 -1 V
1 -1 V
2 0 V
1 -1 V
1 0 V
1 -1 V
1 0 V
2 -1 V
1 -1 V
1 0 V
1 -1 V
1 0 V
2 -1 V
1 0 V
1 -1 V
1 -1 V
1 0 V
2 -1 V
1 0 V
1 -1 V
1 0 V
1 -1 V
2 -1 V
1 0 V
1 -1 V
1 0 V
1 -1 V
2 0 V
1 -1 V
1 0 V
1 -1 V
1 -1 V
2 0 V
1 -1 V
1 0 V
1 -1 V
1 0 V
2 -1 V
1 0 V
4209 1046 L
1 0 V
1 -1 V
2 -1 V
1 0 V
1 -1 V
1 0 V
1 -1 V
2 0 V
1 -1 V
1 0 V
1 -1 V
1 0 V
2 -1 V
1 -1 V
1 0 V
1 -1 V
1 0 V
2 -1 V
1 0 V
1 -1 V
1 0 V
1 -1 V
2 0 V
1 -1 V
1 0 V
1 -1 V
1 0 V
2 -1 V
1 -1 V
1 0 V
1 -1 V
1 0 V
2 -1 V
1 0 V
1 -1 V
1 0 V
1 -1 V
2 0 V
1 -1 V
1 0 V
1 -1 V
1 0 V
2 -1 V
1 0 V
1 -1 V
1 0 V
1 -1 V
2 0 V
1 -1 V
1 0 V
1 -1 V
1 0 V
2 -1 V
1 -1 V
1 0 V
1 -1 V
1 0 V
2 -1 V
1 0 V
1 -1 V
1 0 V
1 -1 V
2 0 V
1 -1 V
1 0 V
1 -1 V
1 0 V
2 -1 V
1 0 V
1 -1 V
1 0 V
1 -1 V
2 0 V
1 -1 V
1 0 V
1 -1 V
1 0 V
2 -1 V
1 0 V
1 -1 V
1 0 V
1 -1 V
2 0 V
1 -1 V
1 0 V
1 -1 V
1 0 V
2 -1 V
1 0 V
1 -1 V
1 0 V
1 0 V
2 -1 V
1 0 V
1 -1 V
1 0 V
1 -1 V
2 0 V
1 -1 V
1 0 V
1 -1 V
1 0 V
2 -1 V
1 0 V
4335 992 L
1 0 V
1 -1 V
2 0 V
1 -1 V
1 0 V
1 -1 V
1 0 V
2 -1 V
1 0 V
1 -1 V
1 0 V
1 0 V
2 -1 V
1 0 V
1 -1 V
1 0 V
1 -1 V
2 0 V
1 -1 V
1 0 V
1 -1 V
1 0 V
2 -1 V
1 0 V
1 -1 V
1 0 V
1 -1 V
2 0 V
1 0 V
1 -1 V
1 0 V
1 -1 V
2 0 V
1 -1 V
1 0 V
1 -1 V
1 0 V
2 -1 V
1 0 V
1 -1 V
1 0 V
1 0 V
2 -1 V
1 0 V
1 -1 V
1 0 V
1 -1 V
2 0 V
1 -1 V
1 0 V
1 0 V
1 -1 V
2 0 V
1 -1 V
1 0 V
1 -1 V
1 0 V
2 -1 V
1 0 V
1 -1 V
1 0 V
1 0 V
2 -1 V
1 0 V
1 -1 V
1 0 V
1 -1 V
2 0 V
1 -1 V
1 0 V
1 0 V
1 -1 V
2 0 V
1 -1 V
1 0 V
1 -1 V
1 0 V
2 0 V
1 -1 V
1 0 V
1 -1 V
1 0 V
2 -1 V
1 0 V
1 -1 V
1 0 V
1 0 V
2 -1 V
1 0 V
1 -1 V
1 0 V
1 -1 V
2 0 V
1 0 V
1 -1 V
1 0 V
1 -1 V
2 0 V
1 -1 V
1 0 V
1 0 V
1 -1 V
2 0 V
1 -1 V
4461 945 L
1 0 V
1 -1 V
2 0 V
1 -1 V
1 0 V
1 -1 V
1 0 V
2 0 V
1 -1 V
1 0 V
1 -1 V
1 0 V
2 -1 V
1 0 V
1 0 V
1 -1 V
1 0 V
2 -1 V
1 0 V
1 0 V
1 -1 V
1 0 V
2 -1 V
1 0 V
1 0 V
1 -1 V
1 0 V
2 -1 V
1 0 V
1 0 V
1 -1 V
1 0 V
2 -1 V
1 0 V
1 -1 V
1 0 V
1 0 V
2 -1 V
1 0 V
1 -1 V
1 0 V
1 0 V
2 -1 V
1 0 V
1 -1 V
1 0 V
1 0 V
2 -1 V
1 0 V
1 -1 V
1 0 V
1 0 V
2 -1 V
1 0 V
1 -1 V
1 0 V
1 0 V
2 -1 V
1 0 V
1 -1 V
1 0 V
1 0 V
2 -1 V
1 0 V
1 0 V
1 -1 V
1 0 V
2 -1 V
1 0 V
1 0 V
1 -1 V
1 0 V
2 -1 V
1 0 V
1 0 V
1 -1 V
1 0 V
2 -1 V
1 0 V
1 0 V
1 -1 V
1 0 V
2 0 V
1 -1 V
1 0 V
1 -1 V
1 0 V
2 0 V
1 -1 V
1 0 V
1 0 V
1 -1 V
2 0 V
1 -1 V
1 0 V
1 0 V
1 -1 V
2 0 V
1 -1 V
1 0 V
1 0 V
1 -1 V
2 0 V
1 0 V
4587 903 L
1 0 V
1 -1 V
2 0 V
1 0 V
1 -1 V
1 0 V
1 0 V
2 -1 V
1 0 V
1 0 V
1 -1 V
1 0 V
2 -1 V
1 0 V
1 0 V
1 -1 V
1 0 V
2 0 V
1 -1 V
1 0 V
1 -1 V
1 0 V
2 0 V
1 -1 V
1 0 V
1 0 V
1 -1 V
2 0 V
1 0 V
1 -1 V
1 0 V
1 0 V
2 -1 V
1 0 V
1 -1 V
1 0 V
1 0 V
2 -1 V
1 0 V
1 0 V
1 -1 V
1 0 V
2 0 V
1 -1 V
1 0 V
1 0 V
1 -1 V
2 0 V
1 -1 V
1 0 V
1 0 V
1 -1 V
2 0 V
1 0 V
1 -1 V
1 0 V
1 0 V
2 -1 V
1 0 V
1 0 V
1 -1 V
1 0 V
2 0 V
1 -1 V
1 0 V
1 0 V
1 -1 V
2 0 V
1 -1 V
1 0 V
1 0 V
1 -1 V
2 0 V
1 0 V
1 -1 V
1 0 V
1 0 V
2 -1 V
1 0 V
1 0 V
1 -1 V
1 0 V
2 0 V
1 -1 V
1 0 V
1 0 V
1 -1 V
2 0 V
1 0 V
1 -1 V
1 0 V
1 0 V
2 -1 V
1 0 V
1 0 V
1 -1 V
1 0 V
2 0 V
1 -1 V
1 0 V
1 0 V
1 -1 V
2 0 V
1 0 V
4713 866 L
1 0 V
1 0 V
2 -1 V
1 0 V
1 0 V
1 -1 V
1 0 V
2 0 V
1 -1 V
1 0 V
1 0 V
1 -1 V
2 0 V
1 0 V
1 -1 V
1 0 V
1 0 V
2 -1 V
1 0 V
1 0 V
1 -1 V
1 0 V
2 0 V
1 -1 V
1 0 V
1 0 V
1 -1 V
2 0 V
1 0 V
1 0 V
1 -1 V
1 0 V
2 0 V
1 -1 V
1 0 V
1 0 V
1 -1 V
2 0 V
1 0 V
1 -1 V
1 0 V
1 0 V
2 -1 V
1 0 V
1 0 V
1 -1 V
1 0 V
2 0 V
1 -1 V
1 0 V
1 0 V
1 0 V
2 -1 V
1 0 V
1 0 V
1 -1 V
1 0 V
2 0 V
1 -1 V
1 0 V
1 0 V
1 -1 V
2 0 V
1 0 V
1 0 V
1 -1 V
1 0 V
2 0 V
1 -1 V
1 0 V
1 0 V
1 -1 V
2 0 V
1 0 V
1 -1 V
1 0 V
1 0 V
2 0 V
1 -1 V
1 0 V
1 0 V
1 -1 V
2 0 V
1 0 V
1 -1 V
1 0 V
1 0 V
2 0 V
1 -1 V
1 0 V
1 0 V
1 -1 V
2 0 V
1 0 V
1 -1 V
1 0 V
1 0 V
2 0 V
1 -1 V
1 0 V
1 0 V
1 -1 V
2 0 V
1 0 V
4839 833 L
1 0 V
1 0 V
2 0 V
1 -1 V
1 0 V
1 0 V
1 -1 V
2 0 V
1 0 V
1 -1 V
1 0 V
1 0 V
2 0 V
1 -1 V
1 0 V
1 0 V
1 -1 V
2 0 V
1 0 V
1 0 V
1 -1 V
1 0 V
2 0 V
1 -1 V
1 0 V
1 0 V
1 0 V
2 -1 V
1 0 V
1 0 V
1 -1 V
1 0 V
2 0 V
1 0 V
1 -1 V
1 0 V
1 0 V
2 -1 V
1 0 V
1 0 V
1 0 V
1 -1 V
2 0 V
1 0 V
1 -1 V
1 0 V
1 0 V
2 0 V
1 -1 V
1 0 V
1 0 V
1 -1 V
2 0 V
1 0 V
1 0 V
1 -1 V
1 0 V
2 0 V
1 0 V
1 -1 V
1 0 V
1 0 V
2 -1 V
1 0 V
1 0 V
1 0 V
1 -1 V
2 0 V
1 0 V
1 0 V
1 -1 V
1 0 V
2 0 V
1 -1 V
1 0 V
1 0 V
1 0 V
2 -1 V
1 0 V
1 0 V
1 0 V
1 -1 V
2 0 V
1 0 V
1 -1 V
1 0 V
1 0 V
2 0 V
1 -1 V
1 0 V
1 0 V
1 0 V
2 -1 V
1 0 V
1 0 V
1 -1 V
1 0 V
2 0 V
1 0 V
1 -1 V
1 0 V
1 0 V
2 0 V
1 -1 V
4965 804 L
1 0 V
1 0 V
2 -1 V
1 0 V
1 0 V
1 0 V
1 -1 V
2 0 V
1 0 V
1 -1 V
1 0 V
1 0 V
2 0 V
1 -1 V
1 0 V
1 0 V
1 0 V
2 -1 V
1 0 V
1 0 V
1 0 V
1 -1 V
2 0 V
1 0 V
1 0 V
1 -1 V
1 0 V
2 0 V
1 0 V
1 -1 V
1 0 V
1 0 V
2 0 V
1 -1 V
1 0 V
1 0 V
1 0 V
2 -1 V
1 0 V
1 0 V
1 -1 V
1 0 V
2 0 V
1 0 V
1 -1 V
1 0 V
1 0 V
2 0 V
1 -1 V
1 0 V
1 0 V
1 0 V
2 -1 V
1 0 V
1 0 V
1 0 V
1 -1 V
2 0 V
1 0 V
1 0 V
1 -1 V
1 0 V
2 0 V
1 0 V
1 -1 V
1 0 V
1 0 V
2 0 V
1 -1 V
1 0 V
1 0 V
1 0 V
2 0 V
1 -1 V
1 0 V
1 0 V
1 0 V
2 -1 V
1 0 V
1 0 V
1 0 V
1 -1 V
2 0 V
1 0 V
1 0 V
1 -1 V
1 0 V
2 0 V
1 0 V
1 -1 V
1 0 V
1 0 V
2 0 V
1 -1 V
1 0 V
1 0 V
1 0 V
2 -1 V
1 0 V
1 0 V
1 0 V
1 0 V
2 -1 V
1 0 V
5091 778 L
1 0 V
1 -1 V
2 0 V
1 0 V
1 0 V
1 -1 V
1 0 V
2 0 V
1 0 V
1 -1 V
1 0 V
1 0 V
2 0 V
1 0 V
1 -1 V
1 0 V
1 0 V
2 0 V
1 -1 V
1 0 V
1 0 V
1 0 V
2 -1 V
1 0 V
1 0 V
1 0 V
1 -1 V
2 0 V
1 0 V
1 0 V
1 0 V
1 -1 V
2 0 V
1 0 V
1 0 V
1 -1 V
1 0 V
2 0 V
1 0 V
1 0 V
1 -1 V
1 0 V
2 0 V
1 0 V
1 -1 V
1 0 V
1 0 V
2 0 V
1 -1 V
1 0 V
1 0 V
1 0 V
2 0 V
1 -1 V
1 0 V
1 0 V
1 0 V
2 -1 V
1 0 V
1 0 V
1 0 V
1 0 V
2 -1 V
1 0 V
1 0 V
1 0 V
1 -1 V
2 0 V
1 0 V
1 0 V
1 0 V
1 -1 V
2 0 V
1 0 V
1 0 V
1 -1 V
1 0 V
2 0 V
1 0 V
1 0 V
1 -1 V
1 0 V
2 0 V
1 0 V
1 -1 V
1 0 V
1 0 V
2 0 V
1 0 V
1 -1 V
1 0 V
1 0 V
2 0 V
1 0 V
1 -1 V
1 0 V
1 0 V
2 0 V
1 -1 V
1 0 V
1 0 V
1 0 V
2 0 V
1 -1 V
5217 754 L
1 0 V
1 0 V
2 0 V
1 -1 V
1 0 V
1 0 V
1 0 V
2 -1 V
1 0 V
1 0 V
1 0 V
1 0 V
2 -1 V
1 0 V
1 0 V
1 0 V
1 0 V
2 -1 V
1 0 V
1 0 V
1 0 V
1 0 V
2 -1 V
1 0 V
1 0 V
1 0 V
1 -1 V
2 0 V
1 0 V
1 0 V
1 0 V
1 -1 V
2 0 V
1 0 V
1 0 V
1 0 V
1 -1 V
2 0 V
1 0 V
1 0 V
1 0 V
1 -1 V
2 0 V
1 0 V
1 0 V
1 0 V
1 -1 V
2 0 V
1 0 V
1 0 V
1 0 V
1 -1 V
2 0 V
1 0 V
1 0 V
1 0 V
1 -1 V
2 0 V
1 0 V
1 0 V
1 0 V
1 -1 V
2 0 V
1 0 V
1 0 V
1 0 V
1 -1 V
2 0 V
1 0 V
1 0 V
1 0 V
1 -1 V
2 0 V
1 0 V
1 0 V
1 0 V
1 -1 V
2 0 V
1 0 V
1 0 V
1 0 V
1 -1 V
2 0 V
1 0 V
1 0 V
1 0 V
1 -1 V
2 0 V
1 0 V
1 0 V
1 0 V
1 -1 V
2 0 V
1 0 V
1 0 V
1 0 V
1 -1 V
2 0 V
1 0 V
1 0 V
1 0 V
1 -1 V
2 0 V
1 0 V
5343 733 L
1 0 V
1 -1 V
2 0 V
1 0 V
1 0 V
1 0 V
1 -1 V
2 0 V
1 0 V
1 0 V
1 0 V
1 0 V
2 -1 V
1 0 V
1 0 V
1 0 V
1 0 V
2 -1 V
1 0 V
1 0 V
1 0 V
1 0 V
2 -1 V
1 0 V
1 0 V
1 0 V
1 0 V
2 0 V
1 -1 V
1 0 V
1 0 V
1 0 V
2 0 V
1 -1 V
1 0 V
1 0 V
1 0 V
2 0 V
1 -1 V
1 0 V
1 0 V
1 0 V
2 0 V
1 0 V
1 -1 V
1 0 V
1 0 V
2 0 V
1 0 V
1 -1 V
1 0 V
1 0 V
2 0 V
1 0 V
1 0 V
1 -1 V
1 0 V
2 0 V
1 0 V
1 0 V
1 -1 V
1 0 V
2 0 V
1 0 V
1 0 V
1 -1 V
1 0 V
2 0 V
1 0 V
1 0 V
1 0 V
1 -1 V
2 0 V
1 0 V
1 0 V
1 0 V
1 0 V
2 -1 V
1 0 V
1 0 V
1 0 V
1 0 V
2 -1 V
1 0 V
1 0 V
1 0 V
1 0 V
2 0 V
1 -1 V
1 0 V
1 0 V
1 0 V
2 0 V
1 -1 V
1 0 V
1 0 V
1 0 V
2 0 V
1 0 V
1 -1 V
1 0 V
1 0 V
2 0 V
1 0 V
5469 714 L
1 -1 V
1 0 V
2 0 V
1 0 V
1 0 V
1 0 V
1 -1 V
2 0 V
1 0 V
1 0 V
1 0 V
1 -1 V
2 0 V
1 0 V
1 0 V
1 0 V
1 0 V
2 -1 V
1 0 V
1 0 V
1 0 V
1 0 V
2 0 V
1 -1 V
1 0 V
1 0 V
1 0 V
2 0 V
1 0 V
1 -1 V
1 0 V
1 0 V
2 0 V
1 0 V
1 0 V
1 -1 V
1 0 V
2 0 V
1 0 V
1 0 V
1 0 V
1 -1 V
2 0 V
1 0 V
1 0 V
1 0 V
1 0 V
2 -1 V
1 0 V
1 0 V
1 0 V
1 0 V
2 0 V
1 -1 V
1 0 V
1 0 V
1 0 V
2 0 V
1 0 V
1 -1 V
1 0 V
1 0 V
2 0 V
1 0 V
1 0 V
1 -1 V
1 0 V
2 0 V
1 0 V
1 0 V
1 0 V
1 -1 V
2 0 V
1 0 V
1 0 V
1 0 V
1 0 V
2 -1 V
1 0 V
1 0 V
1 0 V
1 0 V
2 0 V
1 -1 V
1 0 V
1 0 V
1 0 V
2 0 V
1 0 V
1 -1 V
1 0 V
1 0 V
2 0 V
1 0 V
1 0 V
1 -1 V
1 0 V
2 0 V
1 0 V
1 0 V
1 0 V
1 0 V
2 -1 V
1 0 V
5595 696 L
1 0 V
1 0 V
2 0 V
1 -1 V
1 0 V
1 0 V
1 0 V
2 0 V
1 0 V
1 -1 V
1 0 V
1 0 V
2 0 V
1 0 V
1 0 V
1 0 V
1 -1 V
2 0 V
1 0 V
1 0 V
1 0 V
1 0 V
2 -1 V
1 0 V
1 0 V
1 0 V
1 0 V
2 0 V
1 0 V
1 -1 V
1 0 V
1 0 V
2 0 V
1 0 V
1 0 V
1 -1 V
1 0 V
2 0 V
1 0 V
1 0 V
1 0 V
1 0 V
2 -1 V
1 0 V
1 0 V
1 0 V
1 0 V
2 0 V
1 -1 V
1 0 V
1 0 V
1 0 V
2 0 V
1 0 V
1 0 V
1 -1 V
1 0 V
2 0 V
1 0 V
1 0 V
1 0 V
1 -1 V
2 0 V
1 0 V
1 0 V
1 0 V
1 0 V
2 0 V
1 -1 V
1 0 V
1 0 V
1 0 V
2 0 V
1 0 V
1 0 V
1 -1 V
1 0 V
2 0 V
1 0 V
1 0 V
1 0 V
1 0 V
2 -1 V
1 0 V
1 0 V
1 0 V
1 0 V
2 0 V
1 -1 V
1 0 V
1 0 V
1 0 V
2 0 V
1 0 V
1 0 V
1 -1 V
1 0 V
2 0 V
1 0 V
1 0 V
1 0 V
1 0 V
2 -1 V
1 0 V
5721 680 L
1 0 V
1 0 V
2 0 V
1 0 V
1 -1 V
1 0 V
1 0 V
2 0 V
1 0 V
1 0 V
1 0 V
1 -1 V
2 0 V
1 0 V
1 0 V
1 0 V
1 0 V
2 0 V
1 -1 V
1 0 V
1 0 V
1 0 V
2 0 V
1 0 V
1 0 V
1 -1 V
1 0 V
2 0 V
1 0 V
1 0 V
1 0 V
1 0 V
2 -1 V
1 0 V
1 0 V
1 0 V
1 0 V
2 0 V
1 0 V
1 -1 V
1 0 V
1 0 V
2 0 V
1 0 V
1 0 V
1 0 V
1 -1 V
2 0 V
1 0 V
1 0 V
1 0 V
1 0 V
2 0 V
1 0 V
1 -1 V
1 0 V
1 0 V
2 0 V
1 0 V
1 0 V
1 0 V
1 -1 V
2 0 V
1 0 V
1 0 V
1 0 V
1 0 V
2 0 V
1 -1 V
1 0 V
1 0 V
1 0 V
2 0 V
1 0 V
1 0 V
1 0 V
1 -1 V
2 0 V
1 0 V
1 0 V
1 0 V
1 0 V
2 0 V
1 -1 V
1 0 V
1 0 V
1 0 V
2 0 V
1 0 V
1 0 V
1 0 V
1 -1 V
2 0 V
1 0 V
1 0 V
1 0 V
1 0 V
2 0 V
1 -1 V
1 0 V
1 0 V
1 0 V
2 0 V
1 0 V
5847 666 L
1 0 V
1 -1 V
2 0 V
1 0 V
1 0 V
1 0 V
1 0 V
2 0 V
1 -1 V
1 0 V
1 0 V
1 0 V
2 0 V
1 0 V
1 0 V
1 0 V
1 -1 V
2 0 V
1 0 V
1 0 V
1 0 V
1 0 V
2 0 V
1 0 V
1 -1 V
1 0 V
1 0 V
2 0 V
1 0 V
1 0 V
1 0 V
1 -1 V
2 0 V
1 0 V
1 0 V
1 0 V
1 0 V
2 0 V
1 0 V
1 -1 V
1 0 V
1 0 V
2 0 V
1 0 V
1 0 V
1 0 V
1 0 V
2 -1 V
1 0 V
1 0 V
1 0 V
1 0 V
2 0 V
1 0 V
1 0 V
1 -1 V
1 0 V
2 0 V
1 0 V
1 0 V
1 0 V
1 0 V
2 0 V
1 -1 V
1 0 V
1 0 V
1 0 V
2 0 V
1 0 V
1 0 V
1 0 V
1 -1 V
2 0 V
1 0 V
1 0 V
1 0 V
1 0 V
2 0 V
1 0 V
1 -1 V
1 0 V
1 0 V
2 0 V
1 0 V
1 0 V
1 0 V
1 0 V
2 -1 V
1 0 V
1 0 V
1 0 V
1 0 V
2 0 V
1 0 V
1 0 V
1 -1 V
1 0 V
2 0 V
1 0 V
1 0 V
1 0 V
1 0 V
2 0 V
1 0 V
5973 652 L
1 0 V
1 0 V
2 0 V
1 0 V
1 0 V
1 0 V
1 0 V
2 -1 V
1 0 V
1 0 V
1 0 V
1 0 V
2 0 V
1 0 V
1 0 V
1 -1 V
1 0 V
2 0 V
1 0 V
1 0 V
1 0 V
1 0 V
2 0 V
1 0 V
1 -1 V
1 0 V
1 0 V
2 0 V
1 0 V
1 0 V
1 0 V
1 0 V
2 -1 V
1 0 V
1 0 V
1 0 V
1 0 V
2 0 V
1 0 V
1 0 V
1 0 V
1 -1 V
2 0 V
1 0 V
1 0 V
1 0 V
1 0 V
2 0 V
1 0 V
1 -1 V
1 0 V
1 0 V
2 0 V
1 0 V
1 0 V
1 0 V
1 0 V
2 0 V
1 -1 V
1 0 V
1 0 V
1 0 V
2 0 V
1 0 V
1 0 V
1 0 V
1 0 V
2 -1 V
1 0 V
1 0 V
1 0 V
1 0 V
2 0 V
1 0 V
1 0 V
1 -1 V
1 0 V
2 0 V
1 0 V
1 0 V
1 0 V
1 0 V
2 0 V
1 0 V
1 -1 V
1 0 V
1 0 V
2 0 V
1 0 V
1 0 V
1 0 V
1 0 V
2 0 V
1 -1 V
1 0 V
1 0 V
1 0 V
2 0 V
1 0 V
1 0 V
1 0 V
1 0 V
2 -1 V
1 0 V
6099 640 L
1 0 V
1 0 V
2 0 V
1 0 V
1 0 V
1 0 V
1 -1 V
2 0 V
1 0 V
1 0 V
1 0 V
1 0 V
2 0 V
1 0 V
1 0 V
1 -1 V
1 0 V
2 0 V
1 0 V
1 0 V
1 0 V
1 0 V
2 0 V
1 0 V
1 0 V
1 -1 V
1 0 V
2 0 V
1 0 V
1 0 V
1 0 V
1 0 V
2 0 V
1 0 V
1 -1 V
1 0 V
1 0 V
2 0 V
1 0 V
1 0 V
1 0 V
1 0 V
2 0 V
1 -1 V
1 0 V
1 0 V
1 0 V
2 0 V
1 0 V
1 0 V
1 0 V
1 0 V
2 0 V
1 -1 V
1 0 V
1 0 V
1 0 V
2 0 V
1 0 V
1 0 V
1 0 V
1 0 V
2 -1 V
1 0 V
1 0 V
1 0 V
1 0 V
2 0 V
1 0 V
1 0 V
1 0 V
1 0 V
2 -1 V
1 0 V
1 0 V
1 0 V
1 0 V
2 0 V
1 0 V
1 0 V
1 0 V
1 -1 V
2 0 V
1 0 V
1 0 V
1 0 V
1 0 V
2 0 V
1 0 V
1 0 V
1 0 V
1 -1 V
2 0 V
1 0 V
1 0 V
1 0 V
1 0 V
2 0 V
1 0 V
1 0 V
1 0 V
1 -1 V
2 0 V
1 0 V
6225 629 L
1 0 V
1 0 V
2 0 V
1 0 V
1 0 V
1 -1 V
1 0 V
2 0 V
1 0 V
1 0 V
1 0 V
1 0 V
2 0 V
1 0 V
1 0 V
1 -1 V
1 0 V
2 0 V
1 0 V
1 0 V
1 0 V
1 0 V
2 0 V
1 0 V
1 0 V
1 -1 V
1 0 V
2 0 V
1 0 V
1 0 V
1 0 V
1 0 V
2 0 V
1 0 V
1 0 V
1 -1 V
1 0 V
2 0 V
1 0 V
1 0 V
1 0 V
1 0 V
2 0 V
1 0 V
1 0 V
1 0 V
1 -1 V
2 0 V
1 0 V
1 0 V
1 0 V
1 0 V
2 0 V
1 0 V
1 0 V
1 0 V
1 -1 V
2 0 V
1 0 V
1 0 V
1 0 V
1 0 V
2 0 V
1 0 V
1 0 V
1 0 V
1 -1 V
2 0 V
1 0 V
1 0 V
1 0 V
1 0 V
2 0 V
1 0 V
1 0 V
1 0 V
1 -1 V
2 0 V
1 0 V
1 0 V
1 0 V
1 0 V
2 0 V
1 0 V
1 0 V
1 0 V
1 0 V
2 -1 V
1 0 V
1 0 V
1 0 V
1 0 V
2 0 V
1 0 V
1 0 V
1 0 V
1 0 V
2 0 V
1 -1 V
1 0 V
1 0 V
1 0 V
2 0 V
1 0 V
6351 619 L
1 0 V
1 0 V
2 0 V
1 -1 V
1 0 V
1 0 V
1 0 V
2 0 V
1 0 V
1 0 V
1 0 V
1 0 V
2 0 V
1 0 V
1 -1 V
1 0 V
1 0 V
2 0 V
1 0 V
1 0 V
1 0 V
1 0 V
2 0 V
1 0 V
1 0 V
1 -1 V
1 0 V
2 0 V
1 0 V
1 0 V
1 0 V
1 0 V
2 0 V
1 0 V
1 0 V
1 0 V
1 -1 V
2 0 V
1 0 V
1 0 V
1 0 V
1 0 V
2 0 V
1 0 V
1 0 V
1 0 V
1 0 V
2 -1 V
1 0 V
1 0 V
1 0 V
1 0 V
2 0 V
1 0 V
1 0 V
1 0 V
1 0 V
2 0 V
1 -1 V
1 0 V
1 0 V
1 0 V
2 0 V
1 0 V
1 0 V
1 0 V
1 0 V
2 0 V
1 0 V
1 -1 V
1 0 V
1 0 V
2 0 V
1 0 V
1 0 V
1 0 V
1 0 V
2 0 V
1 0 V
1 0 V
1 -1 V
1 0 V
2 0 V
1 0 V
1 0 V
1 0 V
1 0 V
2 0 V
1 0 V
1 0 V
1 0 V
1 0 V
2 -1 V
1 0 V
1 0 V
1 0 V
1 0 V
2 0 V
1 0 V
1 0 V
1 0 V
1 0 V
2 0 V
1 -1 V
6477 609 L
1 0 V
1 0 V
2 0 V
1 0 V
1 0 V
1 0 V
1 0 V
2 0 V
1 0 V
1 0 V
1 -1 V
1 0 V
2 0 V
1 0 V
1 0 V
1 0 V
1 0 V
2 0 V
1 0 V
1 0 V
1 0 V
1 0 V
2 -1 V
1 0 V
1 0 V
1 0 V
1 0 V
2 0 V
1 0 V
1 0 V
1 0 V
1 0 V
2 0 V
1 -1 V
1 0 V
1 0 V
1 0 V
2 0 V
1 0 V
1 0 V
1 0 V
1 0 V
2 0 V
1 0 V
1 0 V
1 -1 V
1 0 V
2 0 V
1 0 V
1 0 V
1 0 V
1 0 V
2 0 V
1 0 V
1 0 V
1 0 V
1 0 V
2 -1 V
1 0 V
1 0 V
1 0 V
1 0 V
2 0 V
1 0 V
1 0 V
1 0 V
1 0 V
2 0 V
1 0 V
1 0 V
1 -1 V
1 0 V
2 0 V
1 0 V
1 0 V
1 0 V
1 0 V
2 0 V
1 0 V
1 0 V
1 0 V
1 0 V
2 -1 V
1 0 V
1 0 V
1 0 V
1 0 V
2 0 V
1 0 V
1 0 V
1 0 V
1 0 V
2 0 V
1 0 V
1 -1 V
1 0 V
1 0 V
2 0 V
1 0 V
1 0 V
1 0 V
1 0 V
2 0 V
1 0 V
6603 601 L
1 0 V
1 0 V
2 -1 V
1 0 V
1 0 V
1 0 V
1 0 V
2 0 V
1 0 V
1 0 V
1 0 V
1 0 V
2 0 V
1 0 V
1 -1 V
1 0 V
1 0 V
2 0 V
1 0 V
1 0 V
1 0 V
1 0 V
2 0 V
1 0 V
1 0 V
1 0 V
1 0 V
2 -1 V
1 0 V
1 0 V
1 0 V
1 0 V
2 0 V
1 0 V
1 0 V
1 0 V
1 0 V
2 0 V
1 0 V
1 0 V
1 -1 V
1 0 V
2 0 V
1 0 V
1 0 V
1 0 V
1 0 V
2 0 V
1 0 V
1 0 V
1 0 V
1 0 V
2 0 V
1 -1 V
1 0 V
1 0 V
1 0 V
2 0 V
1 0 V
1 0 V
1 0 V
1 0 V
2 0 V
1 0 V
1 0 V
1 0 V
1 -1 V
2 0 V
1 0 V
1 0 V
1 0 V
1 0 V
2 0 V
1 0 V
1 0 V
1 0 V
1 0 V
2 0 V
1 0 V
1 -1 V
1 0 V
1 0 V
2 0 V
1 0 V
1 0 V
1 0 V
1 0 V
2 0 V
1 0 V
1 0 V
1 0 V
1 0 V
2 -1 V
1 0 V
1 0 V
1 0 V
1 0 V
2 0 V
1 0 V
1 0 V
1 0 V
1 0 V
2 0 V
1 0 V
6729 593 L
1 0 V
1 -1 V
2 0 V
1 0 V
1 0 V
1 0 V
1 0 V
2 0 V
1 0 V
1 0 V
1 0 V
1 0 V
2 0 V
1 0 V
1 -1 V
1 0 V
1 0 V
2 0 V
1 0 V
1 0 V
1 0 V
1 0 V
2 0 V
1 0 V
1 0 V
1 0 V
1 0 V
2 0 V
1 -1 V
1 0 V
1 0 V
1 0 V
2 0 V
1 0 V
1 0 V
1 0 V
1 0 V
2 0 V
1 0 V
1 0 V
1 0 V
1 0 V
2 -1 V
1 0 V
1 0 V
1 0 V
1 0 V
2 0 V
1 0 V
1 0 V
1 0 V
1 0 V
2 0 V
1 0 V
1 0 V
1 0 V
1 -1 V
2 0 V
1 0 V
1 0 V
1 0 V
1 0 V
2 0 V
1 0 V
1 0 V
1 0 V
1 0 V
2 0 V
1 0 V
1 0 V
1 -1 V
1 0 V
2 0 V
1 0 V
1 0 V
1 0 V
1 0 V
2 0 V
1 0 V
1 0 V
1 0 V
1 0 V
2 0 V
1 0 V
1 -1 V
1 0 V
1 0 V
2 0 V
1 0 V
1 0 V
1 0 V
1 0 V
2 0 V
1 0 V
1 0 V
1 0 V
1 0 V
2 0 V
1 0 V
1 -1 V
1 0 V
1 0 V
2 0 V
1 0 V
6855 585 L
1 0 V
1 0 V
2 0 V
1 0 V
1 0 V
1 0 V
1 0 V
2 0 V
1 0 V
1 -1 V
1 0 V
1 0 V
2 0 V
1 0 V
1 0 V
1 0 V
1 0 V
2 0 V
1 0 V
1 0 V
1 0 V
1 0 V
2 0 V
1 -1 V
1 0 V
1 0 V
1 0 V
2 0 V
1 0 V
1 0 V
1 0 V
1 0 V
2 0 V
1 0 V
1 0 V
1 0 V
1 0 V
2 0 V
1 -1 V
1 0 V
1 0 V
1 0 V
2 0 V
1 0 V
1 0 V
1 0 V
1 0 V
2 0 V
1 0 V
1 0 V
1 0 V
1 0 V
2 0 V
1 -1 V
1 0 V
1 0 V
1 0 V
2 0 V
1 0 V
1 0 V
1 0 V
1 0 V
2 0 V
1 0 V
1 0 V
1 0 V
1 0 V
2 0 V
1 -1 V
1 0 V
1 0 V
1 0 V
2 0 V
1 0 V
stroke
LT1
LTb
6252 4302 M
[ [(Helvetica) 150.0 0.0 true true 0 (Diferencias Faciales)]
] -50.0 MRshow
LT1
6342 4302 M
423 0 V
2438 4590 M
1 -3 V
1 -4 V
1 -4 V
2 -4 V
1 -4 V
1 -5 V
1 -4 V
1 -4 V
2 -4 V
1 -4 V
1 -4 V
1 -4 V
1 -4 V
2 -4 V
1 -4 V
1 -4 V
1 -4 V
1 -113 V
2 -4 V
1 -4 V
1 -4 V
1 -4 V
1 -3 V
2 -4 V
1 -4 V
1 -4 V
1 -4 V
1 -4 V
2 -4 V
1 -4 V
1 -3 V
1 -4 V
1 -4 V
2 -4 V
1 -4 V
1 -3 V
1 -4 V
1 -4 V
2 -4 V
1 -4 V
1 -3 V
1 -4 V
1 -4 V
2 -4 V
1 -112 V
1 -4 V
1 -3 V
1 -4 V
2 -3 V
1 -4 V
1 -4 V
1 -3 V
1 -4 V
2 -3 V
1 -4 V
1 -4 V
1 -3 V
1 -4 V
2 -3 V
1 -4 V
1 -3 V
1 -4 V
1 -3 V
2 -4 V
1 -3 V
1 -4 V
1 -3 V
1 -4 V
2 -3 V
1 -4 V
1 -3 V
1 -4 V
1 -3 V
2 -4 V
1 -112 V
1 -3 V
1 -4 V
1 -3 V
2 -3 V
1 -4 V
1 -3 V
1 -3 V
1 -4 V
2 -3 V
1 -3 V
1 -3 V
1 -4 V
1 -3 V
2 -3 V
1 -3 V
1 -4 V
1 -3 V
1 -3 V
2 -3 V
1 -4 V
1 -3 V
1 -3 V
1 -3 V
2 -4 V
1 -3 V
1 -3 V
1 -3 V
2561 3891 L
2 -4 V
1 -3 V
1 -3 V
1 -3 V
1 -112 V
2 -3 V
1 -3 V
1 -3 V
1 -3 V
1 -3 V
2 -3 V
1 -3 V
1 -3 V
1 -3 V
1 -3 V
2 -4 V
1 -3 V
1 -3 V
1 -3 V
1 -3 V
2 -2 V
1 -3 V
1 -3 V
1 -3 V
1 -3 V
2 -3 V
1 -3 V
1 -3 V
1 -3 V
1 -3 V
2 -3 V
1 -3 V
1 -3 V
1 -3 V
1 -3 V
2 -3 V
1 -3 V
1 -3 V
1 -2 V
1 -112 V
2 -3 V
1 -3 V
1 -3 V
1 -2 V
1 -3 V
2 -3 V
1 -3 V
1 -2 V
1 -3 V
1 -3 V
2 -3 V
1 -2 V
1 -3 V
1 -3 V
1 -3 V
2 -2 V
1 -3 V
1 -3 V
1 -3 V
1 -2 V
2 -3 V
1 -3 V
1 -2 V
1 -3 V
1 -3 V
2 -2 V
1 -3 V
1 -3 V
1 -2 V
1 -3 V
2 -3 V
1 -2 V
1 -3 V
1 -3 V
1 -2 V
2 -3 V
1 -3 V
1 -2 V
1 -112 V
1 -3 V
2 -2 V
1 -3 V
1 -2 V
1 -3 V
1 -2 V
2 -3 V
1 -2 V
1 -3 V
1 -2 V
1 -3 V
2 -2 V
1 -3 V
1 -2 V
1 -3 V
1 -2 V
2 -2 V
1 -3 V
1 -2 V
1 -3 V
1 -2 V
2 -3 V
1 -2 V
1 -3 V
1 -2 V
2687 3274 L
2 -3 V
1 -2 V
1 -3 V
1 -2 V
1 -3 V
2 -2 V
1 -2 V
1 -3 V
1 -2 V
1 -3 V
2 -2 V
1 -2 V
1 -3 V
1 -2 V
1 -3 V
2 -2 V
1 -111 V
1 -3 V
1 -2 V
1 -2 V
2 -3 V
1 -2 V
1 -2 V
1 -2 V
1 -3 V
2 -2 V
1 -2 V
1 -2 V
1 -2 V
1 -3 V
2 -2 V
1 -2 V
1 -2 V
1 -3 V
1 -2 V
2 -2 V
1 -2 V
1 -2 V
1 -3 V
1 -2 V
2 -2 V
1 -2 V
1 -2 V
1 -3 V
1 -2 V
2 -2 V
1 -2 V
1 -2 V
1 -2 V
1 -3 V
2 -2 V
1 -2 V
1 -2 V
1 -2 V
1 -2 V
2 -3 V
1 -2 V
1 -2 V
1 -2 V
1 -2 V
2 -2 V
1 -2 V
1 -3 V
1 -111 V
1 -2 V
2 -2 V
1 -2 V
1 -2 V
1 -2 V
1 -2 V
2 -2 V
1 -2 V
1 -2 V
1 -2 V
1 -2 V
2 -2 V
1 -2 V
1 -2 V
1 -2 V
1 -2 V
2 -2 V
1 -2 V
1 -2 V
1 -2 V
1 -2 V
2 -2 V
1 -2 V
1 -2 V
1 -2 V
1 -2 V
2 -2 V
1 -2 V
1 -2 V
1 -2 V
1 -2 V
2 -1 V
1 -2 V
1 -2 V
1 -2 V
1 -2 V
2 -2 V
1 -2 V
1 -2 V
1 -2 V
2813 2830 L
2 -2 V
1 -2 V
1 -2 V
1 -1 V
1 -2 V
2 -2 V
1 -2 V
1 -2 V
1 -2 V
1 -2 V
2 -2 V
1 -2 V
1 -111 V
1 -2 V
1 -2 V
2 -1 V
1 -2 V
1 -2 V
1 -2 V
1 -1 V
2 -2 V
1 -2 V
1 -2 V
1 -2 V
1 -1 V
2 -2 V
1 -2 V
1 -2 V
1 -1 V
1 -2 V
2 -2 V
1 -2 V
1 -1 V
1 -2 V
1 -2 V
2 -1 V
1 -2 V
1 -2 V
1 -2 V
1 -1 V
2 -2 V
1 -2 V
1 -2 V
1 -1 V
1 -2 V
2 -2 V
1 -1 V
1 -2 V
1 -2 V
1 -1 V
2 -2 V
1 -2 V
1 -2 V
1 -1 V
1 -2 V
2 -2 V
1 -1 V
1 -2 V
1 -2 V
1 -1 V
2 -2 V
1 -2 V
1 -1 V
1 -2 V
1 -2 V
2 -1 V
1 -2 V
1 -2 V
1 -1 V
1 -2 V
2 -2 V
1 -1 V
1 -2 V
1 -111 V
1 -2 V
2 -2 V
1 -1 V
1 -2 V
1 -1 V
1 -2 V
2 -1 V
1 -2 V
1 -1 V
1 -2 V
1 -1 V
2 -2 V
1 -1 V
1 -2 V
1 -2 V
1 -1 V
2 -2 V
1 -1 V
1 -2 V
1 -1 V
1 -2 V
2 -1 V
1 -2 V
1 -1 V
1 -2 V
1 -1 V
2 -2 V
1 -1 V
1 -2 V
1 -1 V
2939 2434 L
2 -1 V
1 -2 V
1 -1 V
1 -2 V
1 -1 V
2 -2 V
1 -1 V
1 -2 V
1 -1 V
1 -2 V
2 -1 V
1 -1 V
1 -2 V
1 -1 V
1 -2 V
2 -1 V
1 -2 V
1 -1 V
1 -2 V
1 -1 V
2 -2 V
1 -1 V
1 -1 V
1 -2 V
1 -1 V
2 -2 V
1 -1 V
1 -2 V
1 -1 V
1 -2 V
2 -1 V
1 -1 V
1 -2 V
1 -1 V
1 -2 V
2 -1 V
1 -2 V
1 -1 V
1 -112 V
1 -1 V
2 -1 V
1 -2 V
1 -1 V
1 -1 V
1 -2 V
2 -1 V
1 -1 V
1 -2 V
1 -1 V
1 -1 V
2 -2 V
1 -1 V
1 -1 V
1 -1 V
1 -2 V
2 -1 V
1 -1 V
1 -2 V
1 -1 V
1 -1 V
2 -2 V
1 -1 V
1 -1 V
1 -1 V
1 -2 V
2 -1 V
1 -1 V
1 -2 V
1 -1 V
1 -1 V
2 -1 V
1 -2 V
1 -1 V
1 -1 V
1 -2 V
2 -1 V
1 -1 V
1 -1 V
1 -2 V
1 -1 V
2 -1 V
1 -1 V
1 -2 V
1 -1 V
1 -1 V
2 -2 V
1 -1 V
1 -1 V
1 -1 V
1 -2 V
2 -1 V
1 -1 V
1 -1 V
1 -2 V
1 -1 V
2 -1 V
1 -1 V
1 -1 V
1 -2 V
1 -1 V
2 -1 V
1 -1 V
1 -2 V
1 -1 V
3065 2183 L
2 -1 V
1 -2 V
1 -1 V
1 -1 V
1 -1 V
2 -1 V
1 -2 V
1 -1 V
1 -1 V
1 -1 V
2 -1 V
1 -2 V
1 -1 V
1 -1 V
1 -1 V
2 -112 V
1 -1 V
1 -1 V
1 -2 V
1 -1 V
2 -1 V
1 -1 V
1 -1 V
1 -1 V
1 -1 V
2 -1 V
1 -1 V
1 -2 V
1 -1 V
1 -1 V
2 -1 V
1 -1 V
1 -1 V
1 -1 V
1 -1 V
2 -1 V
1 -1 V
1 -2 V
1 -1 V
1 -1 V
2 -1 V
1 -1 V
1 -1 V
1 -1 V
1 -1 V
2 -1 V
1 -1 V
1 -1 V
1 -1 V
1 -2 V
2 -1 V
1 -1 V
1 -1 V
1 -1 V
1 -1 V
2 -1 V
1 -1 V
1 -1 V
1 -1 V
1 -1 V
2 -1 V
1 -1 V
1 -1 V
1 -2 V
1 -1 V
2 -1 V
1 -1 V
1 -1 V
1 -1 V
1 -1 V
2 -1 V
1 -1 V
1 -1 V
1 -1 V
1 -1 V
2 -1 V
1 -1 V
1 -1 V
1 -1 V
1 -1 V
2 -1 V
1 -1 V
1 -1 V
1 -1 V
1 -1 V
2 -1 V
1 -2 V
1 -1 V
1 -1 V
1 -1 V
2 -1 V
1 -1 V
1 -1 V
1 -1 V
1 -1 V
2 -1 V
1 -1 V
1 -1 V
1 -1 V
1 -1 V
2 -1 V
1 -1 V
1 -1 V
1 -1 V
3191 1958 L
2 -1 V
1 -1 V
1 -1 V
1 -1 V
1 -1 V
2 -1 V
1 -1 V
1 -1 V
1 -112 V
1 -1 V
2 -1 V
1 -1 V
1 -1 V
1 -1 V
1 -1 V
2 0 V
1 -1 V
1 -1 V
1 -1 V
1 -1 V
2 -1 V
1 -1 V
1 -1 V
1 -1 V
1 -1 V
2 -1 V
1 0 V
1 -1 V
1 -1 V
1 -1 V
2 -1 V
1 -1 V
1 -1 V
1 -1 V
1 -1 V
2 -1 V
1 0 V
1 -1 V
1 -1 V
1 -1 V
2 -1 V
1 -1 V
1 -1 V
1 -1 V
1 -1 V
2 0 V
1 -1 V
1 -1 V
1 -1 V
1 -1 V
2 -1 V
1 -1 V
1 -1 V
1 0 V
1 -1 V
2 -1 V
1 -1 V
1 -1 V
1 -1 V
1 -1 V
2 -1 V
1 0 V
1 -1 V
1 -1 V
1 -1 V
2 -1 V
1 -1 V
1 -1 V
1 0 V
1 -1 V
2 -1 V
1 -1 V
1 -1 V
1 -1 V
1 -1 V
2 0 V
1 -1 V
1 -1 V
1 -1 V
1 -1 V
2 -1 V
1 -1 V
1 0 V
1 -1 V
1 -1 V
2 -1 V
1 -1 V
1 -1 V
1 0 V
1 -1 V
2 -1 V
1 -1 V
1 -1 V
1 -1 V
1 -1 V
2 0 V
1 -1 V
1 -1 V
1 -1 V
1 -1 V
2 0 V
1 -1 V
1 -1 V
1 -1 V
3317 1754 L
2 -1 V
1 0 V
1 -1 V
1 -1 V
1 -1 V
2 -1 V
1 -1 V
1 0 V
1 -1 V
1 -1 V
2 -1 V
1 -1 V
1 0 V
1 -1 V
1 -1 V
2 -1 V
1 -1 V
1 0 V
1 -1 V
1 -1 V
2 -1 V
1 -1 V
1 -1 V
1 -112 V
1 -1 V
2 -1 V
1 0 V
1 -1 V
1 -1 V
1 -1 V
2 0 V
1 -1 V
1 -1 V
1 -1 V
1 0 V
2 -1 V
1 -1 V
1 0 V
1 -1 V
1 -1 V
2 -1 V
1 0 V
1 -1 V
1 -1 V
1 0 V
2 -1 V
1 -1 V
1 -1 V
1 0 V
1 -1 V
2 -1 V
1 0 V
1 -1 V
1 -1 V
1 -1 V
2 0 V
1 -1 V
1 -1 V
1 0 V
1 -1 V
2 -1 V
1 -1 V
1 0 V
1 -1 V
1 -1 V
2 0 V
1 -1 V
1 -1 V
1 0 V
1 -1 V
2 -1 V
1 0 V
1 -1 V
1 -1 V
1 -1 V
2 0 V
1 -1 V
1 -1 V
1 0 V
1 -1 V
2 -1 V
1 0 V
1 -1 V
1 -1 V
1 0 V
2 -1 V
1 -1 V
1 -1 V
1 0 V
1 -1 V
2 -1 V
1 0 V
1 -1 V
1 -1 V
1 0 V
2 -1 V
1 -1 V
1 0 V
1 -1 V
1 -1 V
2 0 V
1 -1 V
1 -1 V
1 0 V
3443 1566 L
2 -1 V
1 0 V
1 -1 V
1 -1 V
1 0 V
2 -1 V
1 -1 V
1 0 V
1 -1 V
1 -1 V
2 0 V
1 -1 V
1 -1 V
1 0 V
1 -1 V
2 -1 V
1 0 V
1 -1 V
1 -1 V
1 0 V
2 -1 V
1 -1 V
1 0 V
1 -1 V
1 -1 V
2 0 V
1 -1 V
1 0 V
1 -1 V
1 -1 V
2 0 V
1 -1 V
1 -1 V
1 0 V
1 -1 V
2 -1 V
1 0 V
1 -1 V
1 -1 V
1 0 V
2 -1 V
1 -1 V
1 0 V
1 -1 V
1 0 V
2 -1 V
1 -1 V
1 0 V
1 -1 V
1 -1 V
2 0 V
1 -1 V
1 -1 V
1 0 V
1 -1 V
2 0 V
1 -1 V
1 -1 V
1 0 V
1 -1 V
2 -1 V
1 0 V
1 -1 V
1 0 V
1 -1 V
2 -1 V
1 0 V
1 -1 V
1 -1 V
1 -113 V
2 -1 V
1 0 V
1 -1 V
1 0 V
1 -1 V
2 -1 V
1 0 V
1 -1 V
1 0 V
1 -1 V
2 0 V
1 -1 V
1 0 V
1 -1 V
1 -1 V
2 0 V
1 -1 V
1 0 V
1 -1 V
1 0 V
2 -1 V
1 0 V
1 -1 V
1 0 V
1 -1 V
2 -1 V
1 0 V
1 -1 V
1 0 V
1 -1 V
2 0 V
1 -1 V
1 0 V
1 -1 V
3569 1389 L
2 -1 V
1 0 V
1 -1 V
1 -1 V
1 0 V
2 -1 V
1 0 V
1 -1 V
1 0 V
1 -1 V
2 0 V
1 -1 V
1 0 V
1 -1 V
1 0 V
2 -1 V
1 0 V
1 -1 V
1 0 V
1 -1 V
2 -1 V
1 0 V
1 -1 V
1 0 V
1 -1 V
2 0 V
1 -1 V
1 0 V
1 -1 V
1 0 V
2 -1 V
1 0 V
1 -1 V
1 0 V
1 -1 V
2 0 V
1 -1 V
1 0 V
1 -1 V
1 0 V
2 -1 V
1 0 V
1 -1 V
1 0 V
1 -1 V
2 0 V
1 -1 V
1 0 V
1 -1 V
1 -1 V
2 0 V
1 -1 V
1 0 V
1 -1 V
1 0 V
2 -1 V
1 0 V
1 -1 V
1 0 V
1 -1 V
2 0 V
1 -1 V
1 0 V
1 -1 V
1 0 V
2 -1 V
1 0 V
1 -1 V
1 0 V
1 -1 V
2 0 V
1 -1 V
1 0 V
1 -1 V
1 0 V
2 -1 V
1 0 V
1 -1 V
1 0 V
1 -1 V
2 0 V
1 -1 V
1 0 V
1 -1 V
1 0 V
2 -1 V
1 0 V
1 -1 V
1 0 V
1 -1 V
2 0 V
1 0 V
1 -1 V
1 0 V
1 -1 V
2 0 V
1 -1 V
1 0 V
1 -1 V
1 0 V
2 -1 V
1 0 V
1 -1 V
1 0 V
3695 1335 L
2 0 V
1 -1 V
1 0 V
1 -1 V
1 0 V
2 -1 V
1 0 V
1 -1 V
1 0 V
1 -1 V
2 0 V
1 -1 V
1 0 V
1 -1 V
1 0 V
2 0 V
1 -1 V
1 0 V
1 -1 V
1 0 V
2 -1 V
1 0 V
1 -1 V
1 0 V
1 -1 V
2 0 V
1 -1 V
1 0 V
1 -1 V
1 0 V
2 -1 V
1 0 V
1 0 V
1 -1 V
1 0 V
2 -1 V
1 0 V
1 -1 V
1 0 V
1 -1 V
2 0 V
1 -1 V
1 0 V
1 -1 V
1 0 V
2 -1 V
1 0 V
1 0 V
1 -1 V
1 0 V
2 -1 V
1 0 V
1 -1 V
1 0 V
1 -1 V
2 0 V
1 -1 V
1 0 V
1 0 V
1 -1 V
2 -115 V
1 -1 V
1 0 V
1 0 V
1 -1 V
2 0 V
1 -1 V
1 0 V
1 0 V
1 -1 V
2 0 V
1 0 V
1 -1 V
1 0 V
1 -1 V
2 0 V
1 0 V
1 -1 V
1 0 V
1 -1 V
2 0 V
1 0 V
1 -1 V
1 0 V
1 -1 V
2 0 V
1 0 V
1 -1 V
1 0 V
1 0 V
2 -1 V
1 0 V
1 -1 V
1 0 V
1 0 V
2 -1 V
1 0 V
1 0 V
1 -1 V
1 0 V
2 -1 V
1 0 V
1 0 V
1 -1 V
3821 1175 L
2 -1 V
1 0 V
1 0 V
1 -1 V
1 0 V
2 0 V
1 -1 V
1 0 V
1 -1 V
1 0 V
2 0 V
1 -1 V
1 0 V
1 0 V
1 -1 V
2 0 V
1 -1 V
1 0 V
1 0 V
1 -1 V
2 0 V
1 0 V
1 -1 V
1 0 V
1 0 V
2 -1 V
1 0 V
1 -1 V
1 0 V
1 0 V
2 -1 V
1 0 V
1 0 V
1 -1 V
1 0 V
2 -1 V
1 0 V
1 0 V
1 -1 V
1 0 V
2 0 V
1 -1 V
1 0 V
1 0 V
1 -1 V
2 0 V
1 -1 V
1 0 V
1 0 V
1 -1 V
2 0 V
1 0 V
1 -1 V
1 0 V
1 0 V
2 -1 V
1 0 V
1 0 V
1 -1 V
1 0 V
2 -1 V
1 0 V
1 0 V
1 -1 V
1 0 V
2 0 V
1 -1 V
1 0 V
1 0 V
1 -1 V
2 0 V
1 0 V
1 -1 V
1 0 V
1 -1 V
2 0 V
1 0 V
1 -1 V
1 0 V
1 0 V
2 -1 V
1 0 V
1 0 V
1 -1 V
1 0 V
2 0 V
1 -1 V
1 0 V
1 0 V
1 -1 V
2 0 V
1 0 V
1 -1 V
1 0 V
1 -1 V
2 0 V
1 0 V
1 -1 V
1 0 V
1 0 V
2 -1 V
1 0 V
1 0 V
1 -1 V
3947 1137 L
2 0 V
1 -1 V
1 0 V
1 0 V
1 -1 V
2 0 V
1 0 V
1 -1 V
1 0 V
1 0 V
2 -1 V
1 0 V
1 0 V
1 -1 V
1 0 V
2 0 V
1 -1 V
1 0 V
1 0 V
1 -1 V
2 0 V
1 0 V
1 -1 V
1 0 V
1 0 V
2 -1 V
1 0 V
1 0 V
1 -1 V
1 0 V
2 0 V
1 -1 V
1 0 V
1 0 V
1 -1 V
2 0 V
1 0 V
1 -1 V
1 0 V
1 0 V
2 -1 V
1 0 V
1 0 V
1 -1 V
1 0 V
2 0 V
1 -1 V
1 0 V
1 0 V
1 -1 V
2 0 V
1 0 V
1 -1 V
1 0 V
1 0 V
2 -1 V
1 0 V
1 0 V
1 -1 V
1 0 V
2 0 V
1 -1 V
1 0 V
1 0 V
1 -1 V
2 0 V
1 0 V
1 -1 V
1 0 V
1 0 V
2 -1 V
1 0 V
1 0 V
1 -1 V
1 0 V
2 0 V
1 -1 V
1 0 V
1 0 V
1 0 V
2 -1 V
1 0 V
1 0 V
1 -1 V
1 0 V
2 0 V
1 -1 V
1 0 V
1 0 V
1 -1 V
2 0 V
1 0 V
1 -1 V
1 0 V
1 0 V
2 -1 V
1 0 V
1 0 V
1 0 V
1 -1 V
2 0 V
1 0 V
1 -1 V
1 0 V
4073 1103 L
2 -1 V
1 0 V
1 0 V
1 -1 V
1 0 V
2 0 V
1 -1 V
1 0 V
1 0 V
1 0 V
2 -1 V
1 0 V
1 0 V
1 -1 V
1 0 V
2 0 V
1 -1 V
1 0 V
1 0 V
1 -1 V
2 0 V
1 0 V
1 -1 V
1 0 V
1 0 V
2 0 V
1 -1 V
1 0 V
1 0 V
1 -1 V
2 0 V
1 0 V
1 -118 V
1 -1 V
1 0 V
2 0 V
1 0 V
1 -1 V
1 0 V
1 0 V
2 0 V
1 -1 V
1 0 V
1 0 V
1 0 V
2 -1 V
1 0 V
1 0 V
1 0 V
1 -1 V
2 0 V
1 0 V
1 0 V
1 -1 V
1 0 V
2 0 V
1 0 V
1 -1 V
1 0 V
1 0 V
2 0 V
1 -1 V
1 0 V
1 0 V
1 0 V
2 -1 V
1 0 V
1 0 V
1 0 V
1 0 V
2 -1 V
1 0 V
1 0 V
1 0 V
1 -1 V
2 0 V
1 0 V
1 0 V
1 -1 V
1 0 V
2 0 V
1 0 V
1 -1 V
1 0 V
1 0 V
2 0 V
1 -1 V
1 0 V
1 0 V
1 0 V
2 -1 V
1 0 V
1 0 V
1 0 V
1 0 V
2 -1 V
1 0 V
1 0 V
1 0 V
1 -1 V
2 0 V
1 0 V
1 0 V
1 -1 V
4199 957 L
2 0 V
1 0 V
1 0 V
1 -1 V
1 0 V
2 0 V
1 0 V
1 -1 V
1 0 V
1 0 V
2 0 V
1 -1 V
1 0 V
1 0 V
1 0 V
2 -1 V
1 0 V
1 0 V
1 0 V
1 0 V
2 -1 V
1 0 V
1 0 V
1 0 V
1 -1 V
2 0 V
1 0 V
1 0 V
1 0 V
1 -1 V
2 0 V
1 0 V
1 0 V
1 -1 V
1 0 V
2 0 V
1 0 V
1 -1 V
1 0 V
1 0 V
2 0 V
1 0 V
1 -1 V
1 0 V
1 0 V
2 0 V
1 -1 V
1 0 V
1 0 V
1 0 V
2 0 V
1 -1 V
1 0 V
1 0 V
1 0 V
2 -1 V
1 0 V
1 0 V
1 0 V
1 0 V
2 -1 V
1 0 V
1 0 V
1 0 V
1 -1 V
2 0 V
1 0 V
1 0 V
1 0 V
1 -1 V
2 0 V
1 0 V
1 0 V
1 -1 V
1 0 V
2 0 V
1 0 V
1 0 V
1 -1 V
1 0 V
2 0 V
1 0 V
1 -1 V
1 0 V
1 0 V
2 0 V
1 0 V
1 -1 V
1 0 V
1 0 V
2 0 V
1 -1 V
1 0 V
1 0 V
1 0 V
2 0 V
1 -1 V
1 0 V
1 0 V
1 0 V
2 0 V
1 -1 V
1 0 V
1 0 V
4325 934 L
2 -1 V
1 0 V
1 0 V
1 0 V
1 0 V
2 -1 V
1 0 V
1 0 V
1 0 V
1 0 V
2 -1 V
1 0 V
1 0 V
1 0 V
1 -1 V
2 0 V
1 0 V
1 0 V
1 0 V
1 -1 V
2 0 V
1 0 V
1 0 V
1 0 V
1 -1 V
2 0 V
1 0 V
1 0 V
1 0 V
1 -1 V
2 0 V
1 0 V
1 0 V
1 -1 V
1 0 V
2 0 V
1 0 V
1 0 V
1 -1 V
1 0 V
2 0 V
1 0 V
1 0 V
1 -1 V
1 0 V
2 0 V
1 0 V
1 0 V
1 -1 V
1 0 V
2 0 V
1 0 V
1 0 V
1 -1 V
1 0 V
2 0 V
1 0 V
1 0 V
1 -1 V
1 0 V
2 0 V
1 0 V
1 -1 V
1 0 V
1 0 V
2 0 V
1 0 V
1 -1 V
1 0 V
1 0 V
2 0 V
1 0 V
1 -1 V
1 0 V
1 0 V
2 0 V
1 0 V
1 -1 V
1 0 V
1 0 V
2 0 V
1 0 V
1 -1 V
1 0 V
1 0 V
2 0 V
1 0 V
1 -1 V
1 0 V
1 0 V
2 0 V
1 0 V
1 -1 V
1 0 V
1 0 V
2 0 V
1 0 V
1 -1 V
1 0 V
1 0 V
2 0 V
1 0 V
1 -1 V
1 0 V
4451 912 L
2 0 V
1 0 V
1 -1 V
1 0 V
1 0 V
2 0 V
1 0 V
1 -1 V
1 0 V
1 0 V
2 0 V
1 0 V
1 -1 V
1 0 V
1 0 V
2 0 V
1 0 V
1 0 V
1 -1 V
1 0 V
2 0 V
1 0 V
1 0 V
1 -1 V
1 0 V
2 0 V
1 0 V
1 0 V
1 -1 V
1 0 V
2 0 V
1 0 V
1 0 V
1 -1 V
1 0 V
2 0 V
1 0 V
1 0 V
1 -1 V
1 0 V
2 0 V
1 0 V
1 0 V
1 0 V
1 -1 V
2 0 V
1 0 V
1 0 V
1 0 V
1 -1 V
2 0 V
1 0 V
1 0 V
1 0 V
1 -1 V
2 0 V
1 0 V
1 0 V
1 0 V
1 -1 V
2 0 V
1 0 V
1 0 V
1 0 V
1 0 V
2 -1 V
1 0 V
1 0 V
1 0 V
1 0 V
2 -1 V
1 0 V
1 0 V
1 0 V
1 0 V
2 -1 V
1 0 V
1 0 V
1 0 V
1 0 V
2 0 V
1 -1 V
1 0 V
1 0 V
1 0 V
2 0 V
1 -1 V
1 0 V
1 0 V
1 0 V
2 0 V
1 -1 V
1 0 V
1 0 V
1 0 V
2 0 V
1 0 V
1 -1 V
1 0 V
1 0 V
2 0 V
1 0 V
1 -1 V
1 0 V
4577 892 L
2 0 V
1 0 V
1 0 V
1 -1 V
1 0 V
2 0 V
1 0 V
1 0 V
1 -1 V
1 0 V
2 0 V
1 0 V
1 0 V
1 0 V
1 -1 V
2 0 V
1 0 V
1 0 V
1 0 V
1 -1 V
2 0 V
1 0 V
1 0 V
1 0 V
1 0 V
2 -1 V
1 0 V
1 0 V
1 0 V
1 0 V
2 0 V
1 -1 V
1 0 V
1 0 V
1 0 V
2 0 V
1 -1 V
1 0 V
1 0 V
1 0 V
2 0 V
1 0 V
1 -1 V
1 0 V
1 0 V
2 0 V
1 0 V
1 -1 V
1 0 V
1 0 V
2 0 V
1 0 V
1 0 V
1 -1 V
1 0 V
2 0 V
1 0 V
1 0 V
1 0 V
1 -1 V
2 0 V
1 0 V
1 0 V
1 0 V
1 0 V
2 -1 V
1 0 V
1 0 V
1 0 V
1 0 V
2 -1 V
1 0 V
1 0 V
1 0 V
1 0 V
2 0 V
1 -1 V
1 -125 V
1 0 V
1 0 V
2 -1 V
1 0 V
1 0 V
1 0 V
1 0 V
2 0 V
1 0 V
1 0 V
1 -1 V
1 0 V
2 0 V
1 0 V
1 0 V
1 0 V
1 0 V
2 0 V
1 0 V
1 -1 V
1 0 V
1 0 V
2 0 V
1 0 V
1 0 V
1 0 V
4703 750 L
2 -1 V
1 0 V
1 0 V
1 0 V
1 0 V
2 0 V
1 0 V
1 0 V
1 -1 V
1 0 V
2 0 V
1 0 V
1 0 V
1 0 V
1 0 V
2 0 V
1 0 V
1 -1 V
1 0 V
1 0 V
2 0 V
1 0 V
1 0 V
1 0 V
1 0 V
2 -1 V
1 0 V
1 0 V
1 0 V
1 0 V
2 0 V
1 0 V
1 0 V
1 0 V
1 -1 V
2 0 V
1 0 V
1 0 V
1 0 V
1 0 V
2 0 V
1 0 V
1 0 V
1 -1 V
1 0 V
2 0 V
1 0 V
1 0 V
1 0 V
1 0 V
2 0 V
1 -1 V
1 0 V
1 0 V
1 0 V
2 0 V
1 0 V
1 0 V
1 0 V
1 0 V
2 -1 V
1 0 V
1 0 V
1 0 V
1 0 V
2 0 V
1 0 V
1 0 V
1 0 V
1 -1 V
2 0 V
1 0 V
1 0 V
1 0 V
1 0 V
2 0 V
1 0 V
1 0 V
1 -1 V
1 0 V
2 0 V
1 0 V
1 0 V
1 0 V
1 0 V
2 0 V
1 -1 V
1 0 V
1 0 V
1 0 V
2 0 V
1 0 V
1 0 V
1 0 V
1 0 V
2 -1 V
1 0 V
1 0 V
1 0 V
1 0 V
2 0 V
1 0 V
1 0 V
1 0 V
4829 737 L
2 0 V
1 0 V
1 0 V
1 0 V
1 0 V
2 0 V
1 0 V
1 0 V
1 -1 V
1 0 V
2 0 V
1 0 V
1 0 V
1 0 V
1 0 V
2 0 V
1 0 V
1 -1 V
1 0 V
1 0 V
2 0 V
1 0 V
1 0 V
1 0 V
1 0 V
2 0 V
1 0 V
1 -1 V
1 0 V
1 0 V
2 0 V
1 0 V
1 0 V
1 0 V
1 0 V
2 0 V
1 -1 V
1 0 V
1 0 V
1 0 V
2 0 V
1 0 V
1 0 V
1 0 V
1 0 V
2 -1 V
1 0 V
1 0 V
1 0 V
1 0 V
2 0 V
1 0 V
1 0 V
1 0 V
1 -1 V
2 0 V
1 0 V
1 0 V
1 0 V
1 0 V
2 0 V
1 0 V
1 0 V
1 0 V
1 -1 V
2 0 V
1 0 V
1 0 V
1 0 V
1 0 V
2 0 V
1 0 V
1 0 V
1 -1 V
1 0 V
2 0 V
1 0 V
1 0 V
1 0 V
1 0 V
2 0 V
1 0 V
1 0 V
1 -1 V
1 0 V
2 0 V
1 0 V
1 0 V
1 0 V
1 0 V
2 0 V
1 0 V
1 -1 V
1 0 V
1 0 V
2 0 V
1 0 V
1 0 V
1 0 V
1 0 V
2 0 V
1 0 V
1 -1 V
1 0 V
4955 726 L
2 0 V
1 0 V
1 0 V
1 0 V
1 0 V
2 0 V
1 0 V
1 -1 V
1 0 V
1 0 V
2 0 V
1 0 V
1 0 V
1 0 V
1 0 V
2 0 V
1 -1 V
1 0 V
1 0 V
1 0 V
2 0 V
1 0 V
1 0 V
1 0 V
1 0 V
2 0 V
1 -1 V
1 0 V
1 0 V
1 0 V
2 0 V
1 0 V
1 0 V
1 0 V
1 0 V
2 0 V
1 -1 V
1 0 V
1 0 V
1 0 V
2 0 V
1 0 V
1 0 V
1 0 V
1 0 V
2 0 V
1 -1 V
1 0 V
1 0 V
1 0 V
2 0 V
1 0 V
1 0 V
1 0 V
1 0 V
2 0 V
1 -1 V
1 0 V
1 0 V
1 0 V
2 0 V
1 0 V
1 0 V
1 0 V
1 0 V
2 0 V
1 -1 V
1 0 V
1 0 V
1 0 V
2 0 V
1 0 V
1 0 V
1 0 V
1 0 V
2 0 V
1 -1 V
1 0 V
1 0 V
1 0 V
2 0 V
1 0 V
1 0 V
1 0 V
1 0 V
2 0 V
1 -1 V
1 0 V
1 0 V
1 0 V
2 0 V
1 0 V
1 0 V
1 0 V
1 0 V
2 0 V
1 0 V
1 -1 V
1 0 V
1 0 V
2 0 V
1 0 V
1 0 V
1 0 V
5081 716 L
2 0 V
1 0 V
1 -1 V
1 0 V
1 0 V
2 0 V
1 0 V
1 0 V
1 0 V
1 0 V
2 0 V
1 0 V
1 0 V
1 -1 V
1 0 V
2 0 V
1 0 V
1 0 V
1 0 V
1 0 V
2 0 V
1 0 V
1 0 V
1 -1 V
1 0 V
2 0 V
1 0 V
1 0 V
1 0 V
1 0 V
2 0 V
1 0 V
1 0 V
1 0 V
1 -1 V
2 0 V
1 0 V
1 0 V
1 0 V
1 0 V
2 0 V
1 0 V
1 0 V
1 0 V
1 -1 V
2 0 V
1 0 V
1 0 V
1 0 V
1 0 V
2 0 V
1 0 V
1 0 V
1 0 V
1 0 V
2 -1 V
1 0 V
1 0 V
1 0 V
1 0 V
2 0 V
1 0 V
1 0 V
1 0 V
1 0 V
2 0 V
1 -1 V
1 0 V
1 0 V
1 0 V
2 0 V
1 0 V
1 0 V
1 0 V
1 0 V
2 0 V
1 0 V
1 -1 V
1 0 V
1 0 V
2 0 V
1 0 V
1 0 V
1 0 V
1 0 V
2 0 V
1 0 V
1 0 V
1 -1 V
1 0 V
2 0 V
1 0 V
1 0 V
1 0 V
1 0 V
2 0 V
1 0 V
1 0 V
1 0 V
1 -1 V
2 0 V
1 0 V
1 0 V
1 0 V
5207 706 L
2 0 V
1 0 V
1 0 V
1 0 V
1 0 V
2 -1 V
1 0 V
1 0 V
1 0 V
1 0 V
2 0 V
1 0 V
1 0 V
1 0 V
1 0 V
2 0 V
1 -1 V
1 0 V
1 0 V
1 0 V
2 0 V
1 0 V
1 0 V
1 0 V
1 0 V
2 0 V
1 0 V
1 -1 V
1 0 V
1 0 V
2 0 V
1 0 V
1 0 V
1 0 V
1 0 V
2 0 V
1 0 V
1 0 V
1 -1 V
1 0 V
2 0 V
1 0 V
1 0 V
1 0 V
1 0 V
2 0 V
1 0 V
1 0 V
1 0 V
1 0 V
2 -1 V
1 0 V
1 0 V
1 0 V
1 0 V
2 0 V
1 0 V
1 0 V
1 0 V
1 0 V
2 0 V
1 -1 V
1 0 V
1 0 V
1 0 V
2 0 V
1 0 V
1 0 V
1 0 V
1 0 V
2 0 V
1 0 V
1 0 V
1 -1 V
1 0 V
2 0 V
1 0 V
1 0 V
1 0 V
1 0 V
2 0 V
1 0 V
1 0 V
1 0 V
1 0 V
2 -1 V
1 0 V
1 0 V
1 0 V
1 0 V
2 0 V
1 0 V
1 0 V
1 0 V
1 0 V
2 0 V
1 -1 V
1 0 V
1 0 V
1 0 V
2 0 V
1 0 V
1 0 V
1 0 V
5333 697 L
2 0 V
1 0 V
1 0 V
1 -1 V
1 0 V
2 0 V
1 0 V
1 0 V
1 0 V
1 0 V
2 0 V
1 0 V
1 0 V
1 0 V
1 0 V
2 -1 V
1 0 V
1 0 V
1 0 V
1 0 V
2 0 V
1 0 V
1 0 V
1 0 V
1 0 V
2 0 V
1 0 V
1 -1 V
1 0 V
1 0 V
2 0 V
1 0 V
1 0 V
1 0 V
1 0 V
2 0 V
1 0 V
1 0 V
1 0 V
1 -1 V
2 0 V
1 0 V
1 0 V
1 0 V
1 0 V
2 0 V
1 0 V
1 0 V
1 0 V
1 0 V
2 0 V
1 -1 V
1 0 V
1 0 V
1 0 V
2 0 V
1 0 V
1 0 V
1 0 V
1 0 V
2 0 V
1 0 V
1 0 V
1 0 V
1 -1 V
2 0 V
1 0 V
1 0 V
1 0 V
1 0 V
2 0 V
1 0 V
1 0 V
1 0 V
1 0 V
2 0 V
1 -1 V
1 0 V
1 0 V
1 0 V
2 0 V
1 0 V
1 0 V
1 0 V
1 0 V
2 0 V
1 0 V
1 0 V
1 0 V
1 -1 V
2 0 V
1 0 V
1 0 V
1 0 V
1 0 V
2 0 V
1 0 V
1 0 V
1 0 V
1 0 V
2 0 V
1 -1 V
1 0 V
1 0 V
5459 688 L
2 0 V
1 0 V
1 0 V
1 0 V
1 0 V
2 0 V
1 0 V
1 0 V
1 0 V
1 -1 V
2 0 V
1 0 V
1 0 V
1 0 V
1 0 V
2 0 V
1 0 V
1 0 V
1 0 V
1 0 V
2 0 V
1 0 V
1 -1 V
1 0 V
1 0 V
2 0 V
1 0 V
1 0 V
1 0 V
1 0 V
2 0 V
1 0 V
1 0 V
1 0 V
1 -1 V
2 0 V
1 0 V
1 0 V
1 0 V
1 0 V
2 0 V
1 0 V
1 0 V
1 0 V
1 0 V
2 0 V
1 0 V
1 -1 V
1 0 V
1 0 V
2 0 V
1 0 V
1 0 V
1 0 V
1 0 V
2 0 V
1 0 V
1 0 V
1 0 V
1 0 V
2 -1 V
1 0 V
1 0 V
1 0 V
1 0 V
2 0 V
1 0 V
1 0 V
1 0 V
1 0 V
2 0 V
1 0 V
1 0 V
1 0 V
1 -1 V
2 0 V
1 0 V
1 0 V
1 0 V
1 0 V
2 0 V
1 0 V
1 0 V
1 0 V
1 0 V
2 0 V
1 0 V
1 -1 V
1 0 V
1 0 V
2 0 V
1 0 V
1 0 V
1 0 V
1 0 V
2 0 V
1 0 V
1 0 V
1 0 V
1 0 V
2 -1 V
1 0 V
1 0 V
1 0 V
5585 680 L
2 0 V
1 0 V
1 0 V
1 0 V
1 0 V
2 0 V
1 0 V
1 0 V
1 0 V
1 -1 V
2 0 V
1 0 V
1 0 V
1 0 V
1 0 V
2 0 V
1 0 V
1 0 V
1 0 V
1 0 V
2 0 V
1 0 V
1 -1 V
1 0 V
1 0 V
2 0 V
1 0 V
1 0 V
1 0 V
1 0 V
2 0 V
1 0 V
1 0 V
1 0 V
1 0 V
2 0 V
1 -1 V
1 0 V
1 0 V
1 0 V
2 0 V
1 0 V
1 0 V
1 0 V
1 0 V
2 0 V
1 0 V
1 0 V
1 0 V
1 0 V
2 -1 V
1 0 V
1 0 V
1 0 V
1 0 V
2 0 V
1 0 V
1 0 V
1 0 V
1 0 V
2 0 V
1 0 V
1 0 V
1 0 V
1 -1 V
2 0 V
1 0 V
1 0 V
1 0 V
1 0 V
2 0 V
1 0 V
1 0 V
1 0 V
1 0 V
2 0 V
1 0 V
1 0 V
1 -1 V
1 0 V
2 0 V
1 0 V
1 0 V
1 0 V
1 0 V
2 0 V
1 0 V
1 0 V
1 0 V
1 0 V
2 0 V
1 0 V
1 -1 V
1 0 V
1 0 V
2 0 V
1 0 V
1 0 V
1 0 V
1 0 V
2 0 V
1 0 V
1 0 V
1 0 V
5711 673 L
2 0 V
1 -1 V
1 0 V
1 0 V
1 0 V
2 0 V
1 0 V
1 0 V
1 0 V
1 0 V
2 0 V
1 0 V
1 0 V
1 0 V
1 0 V
2 -1 V
1 0 V
1 0 V
1 0 V
1 0 V
2 0 V
1 0 V
1 0 V
1 0 V
1 0 V
2 0 V
1 0 V
1 0 V
1 0 V
1 0 V
2 -1 V
1 0 V
1 0 V
1 0 V
1 0 V
2 0 V
1 0 V
1 0 V
1 0 V
1 0 V
2 0 V
1 0 V
1 0 V
1 0 V
1 -1 V
2 0 V
1 0 V
1 0 V
1 0 V
1 0 V
2 0 V
1 0 V
1 0 V
1 0 V
1 0 V
2 0 V
1 0 V
1 0 V
1 0 V
1 -1 V
2 0 V
1 0 V
1 0 V
1 0 V
1 0 V
2 0 V
1 0 V
1 0 V
1 0 V
1 0 V
2 0 V
1 0 V
1 0 V
1 0 V
1 -1 V
2 0 V
1 0 V
1 0 V
1 0 V
1 0 V
2 0 V
1 0 V
1 0 V
1 0 V
1 0 V
2 0 V
1 0 V
1 0 V
1 0 V
1 -1 V
2 0 V
1 0 V
1 0 V
1 0 V
1 0 V
2 0 V
1 0 V
1 0 V
1 0 V
1 0 V
2 0 V
1 0 V
1 0 V
1 0 V
5837 665 L
2 0 V
1 0 V
1 0 V
1 0 V
1 0 V
2 0 V
1 0 V
1 0 V
1 0 V
1 0 V
2 0 V
1 0 V
1 0 V
1 0 V
1 -1 V
2 0 V
1 0 V
1 0 V
1 -214 V
1 0 V
2 0 V
1 0 V
1 0 V
1 0 V
1 0 V
2 0 V
1 0 V
1 0 V
1 0 V
1 0 V
2 0 V
1 0 V
1 0 V
1 0 V
1 0 V
2 0 V
1 0 V
1 0 V
1 0 V
1 0 V
2 0 V
1 0 V
1 0 V
1 0 V
1 0 V
2 0 V
1 0 V
1 0 V
1 0 V
1 0 V
2 0 V
1 0 V
1 0 V
1 0 V
1 0 V
2 0 V
1 0 V
1 0 V
1 0 V
1 0 V
2 0 V
1 0 V
1 0 V
1 0 V
1 0 V
2 0 V
1 0 V
1 0 V
1 0 V
1 0 V
2 0 V
1 0 V
1 0 V
1 0 V
1 0 V
2 0 V
1 0 V
1 0 V
1 0 V
1 0 V
2 0 V
1 0 V
1 0 V
1 0 V
1 0 V
2 0 V
1 0 V
1 0 V
1 0 V
1 0 V
2 0 V
1 0 V
1 0 V
1 0 V
1 0 V
2 0 V
1 0 V
1 0 V
1 0 V
1 0 V
2 0 V
1 0 V
1 0 V
1 0 V
5963 450 L
2 0 V
1 0 V
1 0 V
1 0 V
1 0 V
2 0 V
1 0 V
1 0 V
1 0 V
1 0 V
2 0 V
1 0 V
1 0 V
1 0 V
1 0 V
2 0 V
1 0 V
1 0 V
1 0 V
1 0 V
2 0 V
1 0 V
1 0 V
1 0 V
1 0 V
2 0 V
1 0 V
1 0 V
1 0 V
1 0 V
2 0 V
1 0 V
1 0 V
1 0 V
1 0 V
2 0 V
1 0 V
1 0 V
1 0 V
1 0 V
2 0 V
1 0 V
1 0 V
1 0 V
1 0 V
2 0 V
1 0 V
1 0 V
1 0 V
1 0 V
2 0 V
1 0 V
1 0 V
1 0 V
1 0 V
2 0 V
1 0 V
1 0 V
1 0 V
1 0 V
2 0 V
1 0 V
1 0 V
1 0 V
1 0 V
2 0 V
1 0 V
1 0 V
1 0 V
1 0 V
2 0 V
1 0 V
1 0 V
1 0 V
1 0 V
2 0 V
1 0 V
1 0 V
1 0 V
1 0 V
2 0 V
1 0 V
1 0 V
1 0 V
1 0 V
2 0 V
1 0 V
1 0 V
1 0 V
1 0 V
2 0 V
1 0 V
1 0 V
1 0 V
1 0 V
2 0 V
1 0 V
1 0 V
1 0 V
1 0 V
2 0 V
1 0 V
1 0 V
1 0 V
6089 450 L
2 0 V
1 0 V
1 0 V
1 0 V
1 0 V
2 0 V
1 0 V
1 0 V
1 0 V
1 0 V
2 0 V
1 0 V
1 0 V
1 0 V
1 0 V
2 0 V
1 0 V
1 0 V
1 0 V
1 0 V
2 0 V
1 0 V
1 0 V
1 0 V
1 0 V
2 0 V
1 0 V
1 0 V
1 0 V
1 0 V
2 0 V
1 0 V
1 0 V
1 0 V
1 0 V
2 0 V
1 0 V
1 0 V
1 0 V
1 0 V
2 0 V
1 0 V
1 0 V
1 0 V
1 0 V
2 0 V
1 0 V
1 0 V
1 0 V
1 0 V
2 0 V
1 0 V
1 0 V
1 0 V
1 0 V
2 0 V
1 0 V
1 0 V
1 0 V
1 0 V
2 0 V
1 0 V
1 0 V
1 0 V
1 0 V
2 0 V
1 0 V
1 0 V
1 0 V
1 0 V
2 0 V
1 0 V
1 0 V
1 0 V
1 0 V
2 0 V
1 0 V
1 0 V
1 0 V
1 0 V
2 0 V
1 0 V
1 0 V
1 0 V
1 0 V
2 0 V
1 0 V
1 0 V
1 0 V
1 0 V
2 0 V
1 0 V
1 0 V
1 0 V
1 0 V
2 0 V
1 0 V
1 0 V
1 0 V
1 0 V
2 0 V
1 0 V
1 0 V
1 0 V
6215 450 L
2 0 V
1 0 V
1 0 V
1 0 V
1 0 V
2 0 V
1 0 V
1 0 V
1 0 V
1 0 V
2 0 V
1 0 V
1 0 V
1 0 V
1 0 V
2 0 V
1 0 V
1 0 V
1 0 V
1 0 V
2 0 V
1 0 V
1 0 V
1 0 V
1 0 V
2 0 V
1 0 V
1 0 V
1 0 V
1 0 V
2 0 V
1 0 V
1 0 V
1 0 V
1 0 V
2 0 V
1 0 V
1 0 V
1 0 V
1 0 V
2 0 V
1 0 V
1 0 V
1 0 V
1 0 V
2 0 V
1 0 V
1 0 V
1 0 V
1 0 V
2 0 V
1 0 V
1 0 V
1 0 V
1 0 V
2 0 V
1 0 V
1 0 V
1 0 V
1 0 V
2 0 V
1 0 V
1 0 V
1 0 V
1 0 V
2 0 V
1 0 V
1 0 V
1 0 V
1 0 V
2 0 V
1 0 V
1 0 V
1 0 V
1 0 V
2 0 V
1 0 V
1 0 V
1 0 V
1 0 V
2 0 V
1 0 V
1 0 V
1 0 V
1 0 V
2 0 V
1 0 V
1 0 V
1 0 V
1 0 V
2 0 V
1 0 V
1 0 V
1 0 V
1 0 V
2 0 V
1 0 V
1 0 V
1 0 V
1 0 V
2 0 V
1 0 V
1 0 V
1 0 V
6341 450 L
2 0 V
1 0 V
1 0 V
1 0 V
1 0 V
2 0 V
1 0 V
1 0 V
1 0 V
1 0 V
2 0 V
1 0 V
1 0 V
1 0 V
1 0 V
2 0 V
1 0 V
1 0 V
1 0 V
1 0 V
2 0 V
1 0 V
1 0 V
1 0 V
1 0 V
2 0 V
1 0 V
1 0 V
1 0 V
1 0 V
2 0 V
1 0 V
1 0 V
1 0 V
1 0 V
2 0 V
1 0 V
1 0 V
1 0 V
1 0 V
2 0 V
1 0 V
1 0 V
1 0 V
1 0 V
2 0 V
1 0 V
1 0 V
1 0 V
1 0 V
2 0 V
1 0 V
1 0 V
1 0 V
1 0 V
2 0 V
1 0 V
1 0 V
1 0 V
1 0 V
2 0 V
1 0 V
1 0 V
1 0 V
1 0 V
2 0 V
1 0 V
1 0 V
1 0 V
1 0 V
2 0 V
1 0 V
1 0 V
1 0 V
1 0 V
2 0 V
1 0 V
1 0 V
1 0 V
1 0 V
2 0 V
1 0 V
1 0 V
1 0 V
1 0 V
2 0 V
1 0 V
1 0 V
1 0 V
1 0 V
2 0 V
1 0 V
1 0 V
1 0 V
1 0 V
2 0 V
1 0 V
1 0 V
1 0 V
1 0 V
2 0 V
1 0 V
1 0 V
1 0 V
6467 450 L
2 0 V
1 0 V
1 0 V
1 0 V
1 0 V
2 0 V
1 0 V
1 0 V
1 0 V
1 0 V
2 0 V
1 0 V
1 0 V
1 0 V
1 0 V
2 0 V
1 0 V
1 0 V
1 0 V
1 0 V
2 0 V
1 0 V
1 0 V
1 0 V
1 0 V
2 0 V
1 0 V
1 0 V
1 0 V
1 0 V
2 0 V
1 0 V
1 0 V
1 0 V
1 0 V
2 0 V
1 0 V
1 0 V
1 0 V
1 0 V
2 0 V
1 0 V
1 0 V
1 0 V
1 0 V
2 0 V
1 0 V
1 0 V
1 0 V
1 0 V
2 0 V
1 0 V
1 0 V
1 0 V
1 0 V
2 0 V
1 0 V
1 0 V
1 0 V
1 0 V
2 0 V
1 0 V
1 0 V
1 0 V
1 0 V
2 0 V
1 0 V
1 0 V
1 0 V
1 0 V
2 0 V
1 0 V
1 0 V
1 0 V
1 0 V
2 0 V
1 0 V
1 0 V
1 0 V
1 0 V
2 0 V
1 0 V
1 0 V
1 0 V
1 0 V
2 0 V
1 0 V
1 0 V
1 0 V
1 0 V
2 0 V
1 0 V
1 0 V
1 0 V
1 0 V
2 0 V
1 0 V
1 0 V
1 0 V
1 0 V
2 0 V
1 0 V
1 0 V
1 0 V
6593 450 L
2 0 V
1 0 V
1 0 V
1 0 V
1 0 V
2 0 V
1 0 V
1 0 V
1 0 V
1 0 V
2 0 V
1 0 V
1 0 V
1 0 V
1 0 V
2 0 V
1 0 V
1 0 V
1 0 V
1 0 V
2 0 V
1 0 V
1 0 V
1 0 V
1 0 V
2 0 V
1 0 V
1 0 V
1 0 V
1 0 V
2 0 V
1 0 V
1 0 V
1 0 V
1 0 V
2 0 V
1 0 V
1 0 V
1 0 V
1 0 V
2 0 V
1 0 V
1 0 V
1 0 V
1 0 V
2 0 V
1 0 V
1 0 V
1 0 V
1 0 V
2 0 V
1 0 V
1 0 V
1 0 V
1 0 V
2 0 V
1 0 V
1 0 V
1 0 V
1 0 V
2 0 V
1 0 V
1 0 V
1 0 V
1 0 V
2 0 V
1 0 V
1 0 V
1 0 V
1 0 V
2 0 V
1 0 V
1 0 V
1 0 V
1 0 V
2 0 V
1 0 V
1 0 V
1 0 V
1 0 V
2 0 V
1 0 V
1 0 V
1 0 V
1 0 V
2 0 V
1 0 V
1 0 V
1 0 V
1 0 V
2 0 V
1 0 V
1 0 V
1 0 V
1 0 V
2 0 V
1 0 V
1 0 V
1 0 V
1 0 V
2 0 V
1 0 V
1 0 V
1 0 V
6719 450 L
2 0 V
1 0 V
1 0 V
1 0 V
1 0 V
2 0 V
1 0 V
1 0 V
1 0 V
1 0 V
2 0 V
1 0 V
1 0 V
1 0 V
1 0 V
2 0 V
1 0 V
1 0 V
1 0 V
1 0 V
2 0 V
1 0 V
1 0 V
1 0 V
1 0 V
2 0 V
1 0 V
1 0 V
1 0 V
1 0 V
2 0 V
1 0 V
1 0 V
1 0 V
1 0 V
2 0 V
1 0 V
1 0 V
1 0 V
1 0 V
2 0 V
1 0 V
1 0 V
1 0 V
1 0 V
2 0 V
1 0 V
1 0 V
1 0 V
1 0 V
2 0 V
1 0 V
1 0 V
1 0 V
1 0 V
2 0 V
1 0 V
1 0 V
1 0 V
1 0 V
2 0 V
1 0 V
1 0 V
1 0 V
1 0 V
2 0 V
1 0 V
1 0 V
1 0 V
1 0 V
2 0 V
1 0 V
1 0 V
1 0 V
1 0 V
2 0 V
1 0 V
1 0 V
1 0 V
1 0 V
2 0 V
1 0 V
1 0 V
1 0 V
1 0 V
2 0 V
1 0 V
1 0 V
1 0 V
1 0 V
2 0 V
1 0 V
1 0 V
1 0 V
1 0 V
2 0 V
1 0 V
1 0 V
1 0 V
1 0 V
2 0 V
1 0 V
1 0 V
1 0 V
6845 450 L
2 0 V
1 0 V
1 0 V
1 0 V
1 0 V
2 0 V
1 0 V
1 0 V
1 0 V
1 0 V
2 0 V
1 0 V
1 0 V
1 0 V
1 0 V
2 0 V
1 0 V
1 0 V
1 0 V
1 0 V
2 0 V
1 0 V
1 0 V
1 0 V
1 0 V
2 0 V
1 0 V
1 0 V
1 0 V
1 0 V
2 0 V
1 0 V
1 0 V
1 0 V
1 0 V
2 0 V
1 0 V
1 0 V
1 0 V
1 0 V
2 0 V
1 0 V
1 0 V
1 0 V
1 0 V
2 0 V
1 0 V
1 0 V
1 0 V
1 0 V
2 0 V
1 0 V
1 0 V
1 0 V
1 0 V
2 0 V
1 0 V
1 0 V
1 0 V
1 0 V
2 0 V
1 0 V
1 0 V
1 0 V
1 0 V
2 0 V
1 0 V
1 0 V
1 0 V
1 0 V
2 0 V
1 0 V
1 0 V
1 0 V
1 0 V
2 0 V
1 0 V
1 0 V
1 0 V
1 0 V
2 0 V
1 0 V
stroke
LT2
LTb
6252 4152 M
[ [(Helvetica) 150.0 0.0 true true 0 (Heron)]
] -50.0 MRshow
LT2
6342 4152 M
423 0 V
2427 4590 M
1 -713 V
1 0 V
2 0 V
1 0 V
1 0 V
1 0 V
1 0 V
2 0 V
1 0 V
1 0 V
1 0 V
1 0 V
2 0 V
1 0 V
1 0 V
1 0 V
1 0 V
2 0 V
1 0 V
1 0 V
1 0 V
1 0 V
2 0 V
1 0 V
1 0 V
1 0 V
1 0 V
2 0 V
1 0 V
1 0 V
1 0 V
1 0 V
2 0 V
1 0 V
1 0 V
1 0 V
1 0 V
2 0 V
1 0 V
1 0 V
1 0 V
1 0 V
2 0 V
1 0 V
1 0 V
1 0 V
1 0 V
2 0 V
1 0 V
1 0 V
1 0 V
1 0 V
2 0 V
1 0 V
1 0 V
1 0 V
1 0 V
2 0 V
1 0 V
1 0 V
1 0 V
1 0 V
2 0 V
1 0 V
1 0 V
1 0 V
1 0 V
2 0 V
1 0 V
1 0 V
1 0 V
1 0 V
2 0 V
1 0 V
1 0 V
1 0 V
1 0 V
2 0 V
1 0 V
1 0 V
1 0 V
1 0 V
2 0 V
1 0 V
1 0 V
1 0 V
1 0 V
2 0 V
1 0 V
1 0 V
1 0 V
1 0 V
2 0 V
1 0 V
1 0 V
1 0 V
1 0 V
2 0 V
1 0 V
1 0 V
1 0 V
1 0 V
2551 3877 L
1 0 V
1 0 V
1 0 V
1 0 V
2 0 V
1 0 V
1 0 V
1 0 V
1 0 V
2 0 V
1 0 V
1 0 V
1 0 V
1 -857 V
2 0 V
1 0 V
1 0 V
1 0 V
1 0 V
2 0 V
1 0 V
1 0 V
1 0 V
1 0 V
2 0 V
1 0 V
1 0 V
1 0 V
1 0 V
2 0 V
1 0 V
1 0 V
1 0 V
1 0 V
2 0 V
1 0 V
1 0 V
1 0 V
1 0 V
2 0 V
1 0 V
1 0 V
1 0 V
1 0 V
2 0 V
1 0 V
1 0 V
1 0 V
1 0 V
2 0 V
1 0 V
1 0 V
1 0 V
1 0 V
2 0 V
1 0 V
1 0 V
1 0 V
1 0 V
2 0 V
1 0 V
1 0 V
1 0 V
1 0 V
2 0 V
1 0 V
1 0 V
1 0 V
1 0 V
2 0 V
1 0 V
1 0 V
1 0 V
1 0 V
2 0 V
1 0 V
1 0 V
1 0 V
1 0 V
2 0 V
1 0 V
1 0 V
1 0 V
1 0 V
2 0 V
1 0 V
1 0 V
1 0 V
1 0 V
2 0 V
1 0 V
1 0 V
1 0 V
1 0 V
2 0 V
1 0 V
1 0 V
1 0 V
1 0 V
2 0 V
1 0 V
1 0 V
1 0 V
1 0 V
2677 3020 L
1 0 V
1 0 V
1 0 V
1 0 V
2 0 V
1 0 V
1 0 V
1 0 V
1 0 V
2 0 V
1 0 V
1 0 V
1 0 V
1 0 V
2 0 V
1 0 V
1 0 V
1 0 V
1 0 V
2 0 V
1 0 V
1 0 V
1 0 V
1 0 V
2 0 V
1 0 V
1 0 V
1 0 V
1 0 V
2 0 V
1 0 V
1 0 V
1 0 V
1 0 V
2 0 V
1 0 V
1 0 V
1 0 V
1 0 V
2 0 V
1 0 V
1 0 V
1 0 V
1 0 V
2 0 V
1 0 V
1 0 V
1 0 V
1 0 V
2 0 V
1 0 V
1 0 V
1 0 V
1 0 V
2 0 V
1 0 V
1 0 V
1 0 V
1 0 V
2 0 V
1 0 V
1 0 V
1 0 V
1 0 V
2 0 V
1 0 V
1 0 V
1 0 V
1 0 V
2 0 V
1 0 V
1 0 V
1 -856 V
1 0 V
2 0 V
1 0 V
1 0 V
1 0 V
1 0 V
2 0 V
1 0 V
1 0 V
1 0 V
1 0 V
2 0 V
1 0 V
1 0 V
1 0 V
1 0 V
2 0 V
1 0 V
1 0 V
1 0 V
1 0 V
2 0 V
1 0 V
1 0 V
1 0 V
1 0 V
2 0 V
1 0 V
1 0 V
1 0 V
1 0 V
2803 2164 L
1 0 V
1 0 V
1 0 V
1 0 V
2 0 V
1 0 V
1 0 V
1 0 V
1 0 V
2 0 V
1 0 V
1 0 V
1 0 V
1 0 V
2 0 V
1 0 V
1 0 V
1 0 V
1 0 V
2 0 V
1 0 V
1 0 V
1 0 V
1 0 V
2 0 V
1 0 V
1 0 V
1 0 V
1 0 V
2 0 V
1 0 V
1 0 V
1 0 V
1 0 V
2 0 V
1 0 V
1 0 V
1 0 V
1 0 V
2 0 V
1 0 V
1 0 V
1 0 V
1 0 V
2 0 V
1 0 V
1 0 V
1 0 V
1 0 V
2 0 V
1 0 V
1 0 V
1 0 V
1 0 V
2 0 V
1 0 V
1 0 V
1 0 V
1 0 V
2 0 V
1 0 V
1 0 V
1 0 V
1 0 V
2 0 V
1 0 V
1 0 V
1 0 V
1 0 V
2 0 V
1 0 V
1 0 V
1 0 V
1 0 V
2 0 V
1 0 V
1 0 V
1 0 V
1 0 V
2 0 V
1 0 V
1 0 V
1 0 V
1 0 V
2 0 V
1 0 V
1 0 V
1 0 V
1 0 V
2 0 V
1 0 V
1 0 V
1 0 V
1 0 V
2 0 V
1 0 V
1 0 V
1 0 V
1 0 V
2 0 V
1 0 V
1 0 V
1 0 V
1 0 V
2929 2164 L
1 0 V
1 0 V
1 0 V
1 0 V
2 0 V
1 0 V
1 0 V
1 0 V
1 0 V
2 0 V
1 0 V
1 0 V
1 0 V
1 0 V
2 0 V
1 0 V
1 0 V
1 0 V
1 0 V
2 0 V
1 0 V
1 0 V
1 0 V
1 0 V
2 0 V
1 0 V
1 0 V
1 0 V
1 0 V
2 0 V
1 0 V
1 0 V
1 0 V
1 0 V
2 0 V
1 0 V
1 0 V
1 0 V
1 0 V
2 0 V
1 0 V
1 0 V
1 0 V
1 0 V
2 0 V
1 0 V
1 0 V
1 0 V
1 0 V
2 0 V
1 0 V
1 0 V
1 0 V
1 0 V
2 0 V
1 0 V
1 0 V
1 0 V
1 0 V
2 0 V
1 0 V
1 0 V
1 0 V
1 0 V
2 0 V
1 0 V
1 0 V
1 0 V
1 0 V
2 0 V
1 0 V
1 0 V
1 0 V
1 0 V
2 0 V
1 0 V
1 0 V
1 0 V
1 0 V
2 0 V
1 0 V
1 0 V
1 0 V
1 0 V
2 0 V
1 0 V
1 0 V
1 0 V
1 0 V
2 0 V
1 0 V
1 0 V
1 0 V
1 0 V
2 0 V
1 0 V
1 0 V
1 0 V
1 0 V
2 0 V
1 0 V
1 0 V
1 0 V
1 0 V
3055 2164 L
1 0 V
1 0 V
1 0 V
1 0 V
2 0 V
1 0 V
1 0 V
1 0 V
1 0 V
2 0 V
1 0 V
1 0 V
1 0 V
1 0 V
2 0 V
1 0 V
1 0 V
1 0 V
1 0 V
2 0 V
1 0 V
1 0 V
1 0 V
1 0 V
2 -857 V
1 0 V
1 0 V
1 0 V
1 0 V
2 0 V
1 0 V
1 0 V
1 0 V
1 0 V
2 0 V
1 0 V
1 0 V
1 0 V
1 0 V
2 0 V
1 0 V
1 0 V
1 0 V
1 0 V
2 0 V
1 0 V
1 0 V
1 0 V
1 0 V
2 0 V
1 0 V
1 0 V
1 0 V
1 0 V
2 0 V
1 0 V
1 0 V
1 0 V
1 0 V
2 0 V
1 0 V
1 0 V
1 0 V
1 0 V
2 0 V
1 0 V
1 0 V
1 0 V
1 0 V
2 0 V
1 0 V
1 0 V
1 0 V
1 0 V
2 0 V
1 0 V
1 0 V
1 0 V
1 0 V
2 0 V
1 0 V
1 0 V
1 0 V
1 0 V
2 0 V
1 0 V
1 0 V
1 0 V
1 0 V
2 0 V
1 0 V
1 0 V
1 0 V
1 0 V
2 0 V
1 0 V
1 0 V
1 0 V
1 0 V
2 0 V
1 0 V
1 0 V
1 0 V
1 0 V
3181 1307 L
1 0 V
1 0 V
1 0 V
1 0 V
2 0 V
1 0 V
1 0 V
1 0 V
1 0 V
2 0 V
1 0 V
1 0 V
1 0 V
1 0 V
2 0 V
1 0 V
1 0 V
1 0 V
1 0 V
2 0 V
1 0 V
1 0 V
1 0 V
1 0 V
2 0 V
1 0 V
1 0 V
1 0 V
1 0 V
2 0 V
1 0 V
1 0 V
1 0 V
1 0 V
2 0 V
1 0 V
1 0 V
1 0 V
1 0 V
2 0 V
1 0 V
1 0 V
1 0 V
1 0 V
2 0 V
1 0 V
1 0 V
1 0 V
1 0 V
2 0 V
1 0 V
1 0 V
1 0 V
1 0 V
2 0 V
1 0 V
1 0 V
1 0 V
1 0 V
2 0 V
1 0 V
1 0 V
1 0 V
1 0 V
2 0 V
1 0 V
1 0 V
1 0 V
1 0 V
2 0 V
1 0 V
1 0 V
1 0 V
1 0 V
2 0 V
1 0 V
1 0 V
1 0 V
1 0 V
2 0 V
1 0 V
1 0 V
1 0 V
1 0 V
2 0 V
1 0 V
1 0 V
1 0 V
1 0 V
2 0 V
1 0 V
1 0 V
1 0 V
1 0 V
2 0 V
1 0 V
1 0 V
1 0 V
1 0 V
2 0 V
1 0 V
1 0 V
1 0 V
1 0 V
3307 1307 L
1 0 V
1 0 V
1 0 V
1 0 V
2 0 V
1 0 V
1 0 V
1 0 V
1 0 V
2 0 V
1 0 V
1 0 V
1 0 V
1 0 V
2 0 V
1 0 V
1 0 V
1 0 V
1 0 V
2 0 V
1 0 V
1 0 V
1 0 V
1 0 V
2 0 V
1 0 V
1 0 V
1 0 V
1 0 V
2 0 V
1 0 V
1 0 V
1 0 V
1 0 V
2 0 V
1 0 V
1 0 V
1 0 V
1 0 V
2 0 V
1 0 V
1 0 V
1 0 V
1 0 V
2 0 V
1 0 V
1 0 V
1 0 V
1 0 V
2 0 V
1 0 V
1 0 V
1 0 V
1 0 V
2 0 V
1 0 V
1 0 V
1 0 V
1 0 V
2 0 V
1 0 V
1 0 V
1 0 V
1 0 V
2 0 V
1 0 V
1 0 V
1 0 V
1 0 V
2 0 V
1 0 V
1 0 V
1 0 V
1 0 V
2 0 V
1 0 V
1 0 V
1 0 V
1 0 V
2 0 V
1 0 V
1 0 V
1 0 V
1 0 V
2 0 V
1 0 V
1 0 V
1 0 V
1 0 V
2 0 V
1 0 V
1 0 V
1 0 V
1 0 V
2 0 V
1 0 V
1 0 V
1 0 V
1 0 V
2 0 V
1 0 V
1 0 V
1 0 V
1 0 V
3433 1307 L
1 0 V
1 0 V
1 0 V
1 0 V
2 0 V
1 0 V
1 0 V
1 0 V
1 0 V
2 0 V
1 0 V
1 0 V
1 0 V
1 0 V
2 0 V
1 0 V
1 0 V
1 0 V
1 0 V
2 0 V
1 0 V
1 0 V
1 0 V
1 0 V
2 0 V
1 0 V
1 0 V
1 0 V
1 0 V
2 0 V
1 0 V
1 0 V
1 0 V
1 0 V
2 0 V
1 0 V
1 0 V
1 0 V
1 0 V
2 0 V
1 0 V
1 0 V
1 0 V
1 0 V
2 0 V
1 0 V
1 0 V
1 0 V
1 0 V
2 0 V
1 0 V
1 0 V
1 0 V
1 0 V
2 0 V
1 0 V
1 0 V
1 0 V
1 0 V
2 0 V
1 0 V
1 0 V
1 0 V
1 0 V
2 0 V
1 0 V
1 0 V
1 0 V
1 0 V
2 0 V
1 0 V
1 0 V
1 0 V
1 0 V
2 0 V
1 0 V
1 0 V
1 0 V
1 0 V
2 0 V
1 0 V
1 0 V
1 0 V
1 0 V
2 0 V
1 0 V
1 0 V
1 0 V
1 0 V
2 0 V
1 0 V
1 0 V
1 0 V
1 0 V
2 0 V
1 0 V
1 0 V
1 0 V
1 0 V
2 0 V
1 0 V
1 0 V
1 0 V
1 0 V
3559 1307 L
1 0 V
1 0 V
1 0 V
1 0 V
2 0 V
1 0 V
1 0 V
1 0 V
1 0 V
2 0 V
1 0 V
1 0 V
1 0 V
1 0 V
2 0 V
1 0 V
1 0 V
1 0 V
1 0 V
2 0 V
1 0 V
1 0 V
1 0 V
1 0 V
2 0 V
1 0 V
1 0 V
1 0 V
1 0 V
2 0 V
1 0 V
1 0 V
1 0 V
1 0 V
2 0 V
1 0 V
1 0 V
1 0 V
1 0 V
2 0 V
1 0 V
1 0 V
1 0 V
1 0 V
2 0 V
1 0 V
1 0 V
1 0 V
1 0 V
2 0 V
1 0 V
1 0 V
1 0 V
1 0 V
2 0 V
1 0 V
1 0 V
1 0 V
1 0 V
2 0 V
1 0 V
1 0 V
1 0 V
1 0 V
2 0 V
1 0 V
1 0 V
1 0 V
1 0 V
2 0 V
1 0 V
1 0 V
1 0 V
1 0 V
2 0 V
1 0 V
1 0 V
1 0 V
1 0 V
2 0 V
1 0 V
1 0 V
1 0 V
1 0 V
2 0 V
1 0 V
1 0 V
1 0 V
1 0 V
2 0 V
1 0 V
1 0 V
1 0 V
1 0 V
2 0 V
1 0 V
1 0 V
1 0 V
1 0 V
2 0 V
1 0 V
1 0 V
1 0 V
1 0 V
3685 1307 L
1 0 V
1 0 V
1 0 V
1 0 V
2 0 V
1 0 V
1 0 V
1 0 V
1 0 V
2 0 V
1 0 V
1 0 V
1 0 V
1 0 V
2 0 V
1 0 V
1 0 V
1 0 V
1 0 V
2 0 V
1 0 V
1 0 V
1 0 V
1 0 V
2 0 V
1 0 V
1 0 V
1 0 V
1 0 V
2 0 V
1 0 V
1 0 V
1 0 V
1 0 V
2 0 V
1 0 V
1 0 V
1 0 V
1 0 V
2 0 V
1 0 V
1 0 V
1 0 V
1 0 V
2 0 V
1 0 V
1 0 V
1 0 V
1 0 V
2 0 V
1 0 V
1 0 V
1 0 V
1 0 V
2 0 V
1 0 V
1 0 V
1 0 V
1 0 V
2 0 V
1 0 V
1 0 V
1 0 V
1 0 V
2 0 V
1 0 V
1 0 V
1 0 V
1 0 V
2 -857 V
1 0 V
1 0 V
1 0 V
1 0 V
2 0 V
1 0 V
1 0 V
1 0 V
1 0 V
2 0 V
1 0 V
1 0 V
1 0 V
1 0 V
2 0 V
1 0 V
1 0 V
1 0 V
1 0 V
2 0 V
1 0 V
1 0 V
1 0 V
1 0 V
2 0 V
1 0 V
1 0 V
1 0 V
1 0 V
2 0 V
1 0 V
1 0 V
1 0 V
1 0 V
3811 450 L
1 0 V
1 0 V
1 0 V
1 0 V
2 0 V
1 0 V
1 0 V
1 0 V
1 0 V
2 0 V
1 0 V
1 0 V
1 0 V
1 0 V
2 0 V
1 0 V
1 0 V
1 0 V
1 0 V
2 0 V
1 0 V
1 0 V
1 0 V
1 0 V
2 0 V
1 0 V
1 0 V
1 0 V
1 0 V
2 0 V
1 0 V
1 0 V
1 0 V
1 0 V
2 0 V
1 0 V
1 0 V
1 0 V
1 0 V
2 0 V
1 0 V
1 0 V
1 0 V
1 0 V
2 0 V
1 0 V
1 0 V
1 0 V
1 0 V
2 0 V
1 0 V
1 0 V
1 0 V
1 0 V
2 0 V
1 0 V
1 0 V
1 0 V
1 0 V
2 0 V
1 0 V
1 0 V
1 0 V
1 0 V
2 0 V
1 0 V
1 0 V
1 0 V
1 0 V
2 0 V
1 0 V
1 0 V
1 0 V
1 0 V
2 0 V
1 0 V
1 0 V
1 0 V
1 0 V
2 0 V
1 0 V
1 0 V
1 0 V
1 0 V
2 0 V
1 0 V
1 0 V
1 0 V
1 0 V
2 0 V
1 0 V
1 0 V
1 0 V
1 0 V
2 0 V
1 0 V
1 0 V
1 0 V
1 0 V
2 0 V
1 0 V
1 0 V
1 0 V
1 0 V
3937 450 L
1 0 V
1 0 V
1 0 V
1 0 V
2 0 V
1 0 V
1 0 V
1 0 V
1 0 V
2 0 V
1 0 V
1 0 V
1 0 V
1 0 V
2 0 V
1 0 V
1 0 V
1 0 V
1 0 V
2 0 V
1 0 V
1 0 V
1 0 V
1 0 V
2 0 V
1 0 V
1 0 V
1 0 V
1 0 V
2 0 V
1 0 V
1 0 V
1 0 V
1 0 V
2 0 V
1 0 V
1 0 V
1 0 V
1 0 V
2 0 V
1 0 V
1 0 V
1 0 V
1 0 V
2 0 V
1 0 V
1 0 V
1 0 V
1 0 V
2 0 V
1 0 V
1 0 V
1 0 V
1 0 V
2 0 V
1 0 V
1 0 V
1 0 V
1 0 V
2 0 V
1 0 V
1 0 V
1 0 V
1 0 V
2 0 V
1 0 V
1 0 V
1 0 V
1 0 V
2 0 V
1 0 V
1 0 V
1 0 V
1 0 V
2 0 V
1 0 V
1 0 V
1 0 V
1 0 V
2 0 V
1 0 V
1 0 V
1 0 V
1 0 V
2 0 V
1 0 V
1 0 V
1 0 V
1 0 V
2 0 V
1 0 V
1 0 V
1 0 V
1 0 V
2 0 V
1 0 V
1 0 V
1 0 V
1 0 V
2 0 V
1 0 V
1 0 V
1 0 V
1 0 V
4063 450 L
1 0 V
1 0 V
1 0 V
1 0 V
2 0 V
1 0 V
1 0 V
1 0 V
1 0 V
2 0 V
1 0 V
1 0 V
1 0 V
1 0 V
2 0 V
1 0 V
1 0 V
1 0 V
1 0 V
2 0 V
1 0 V
1 0 V
1 0 V
1 0 V
2 0 V
1 0 V
1 0 V
1 0 V
1 0 V
2 0 V
1 0 V
1 0 V
1 0 V
1 0 V
2 0 V
1 0 V
1 0 V
1 0 V
1 0 V
2 0 V
1 0 V
1 0 V
1 0 V
1 0 V
2 0 V
1 0 V
1 0 V
1 0 V
1 0 V
2 0 V
1 0 V
1 0 V
1 0 V
1 0 V
2 0 V
1 0 V
1 0 V
1 0 V
1 0 V
2 0 V
1 0 V
1 0 V
1 0 V
1 0 V
2 0 V
1 0 V
1 0 V
1 0 V
1 0 V
2 0 V
1 0 V
1 0 V
1 0 V
1 0 V
2 0 V
1 0 V
1 0 V
1 0 V
1 0 V
2 0 V
1 0 V
1 0 V
1 0 V
1 0 V
2 0 V
1 0 V
1 0 V
1 0 V
1 0 V
2 0 V
1 0 V
1 0 V
1 0 V
1 0 V
2 0 V
1 0 V
1 0 V
1 0 V
1 0 V
2 0 V
1 0 V
1 0 V
1 0 V
1 0 V
4189 450 L
1 0 V
1 0 V
1 0 V
1 0 V
2 0 V
1 0 V
1 0 V
1 0 V
1 0 V
2 0 V
1 0 V
1 0 V
1 0 V
1 0 V
2 0 V
1 0 V
1 0 V
1 0 V
1 0 V
2 0 V
1 0 V
1 0 V
1 0 V
1 0 V
2 0 V
1 0 V
1 0 V
1 0 V
1 0 V
2 0 V
1 0 V
1 0 V
1 0 V
1 0 V
2 0 V
1 0 V
1 0 V
1 0 V
1 0 V
2 0 V
1 0 V
1 0 V
1 0 V
1 0 V
2 0 V
1 0 V
1 0 V
1 0 V
1 0 V
2 0 V
1 0 V
1 0 V
1 0 V
1 0 V
2 0 V
1 0 V
1 0 V
1 0 V
1 0 V
2 0 V
1 0 V
1 0 V
1 0 V
1 0 V
2 0 V
1 0 V
1 0 V
1 0 V
1 0 V
2 0 V
1 0 V
1 0 V
1 0 V
1 0 V
2 0 V
1 0 V
1 0 V
1 0 V
1 0 V
2 0 V
1 0 V
1 0 V
1 0 V
1 0 V
2 0 V
1 0 V
1 0 V
1 0 V
1 0 V
2 0 V
1 0 V
1 0 V
1 0 V
1 0 V
2 0 V
1 0 V
1 0 V
1 0 V
1 0 V
2 0 V
1 0 V
1 0 V
1 0 V
1 0 V
4315 450 L
1 0 V
1 0 V
1 0 V
1 0 V
2 0 V
1 0 V
1 0 V
1 0 V
1 0 V
2 0 V
1 0 V
1 0 V
1 0 V
1 0 V
2 0 V
1 0 V
1 0 V
1 0 V
1 0 V
2 0 V
1 0 V
1 0 V
1 0 V
1 0 V
2 0 V
1 0 V
1 0 V
1 0 V
1 0 V
2 0 V
1 0 V
1 0 V
1 0 V
1 0 V
2 0 V
1 0 V
1 0 V
1 0 V
1 0 V
2 0 V
1 0 V
1 0 V
1 0 V
1 0 V
2 0 V
1 0 V
1 0 V
1 0 V
1 0 V
2 0 V
1 0 V
1 0 V
1 0 V
1 0 V
2 0 V
1 0 V
1 0 V
1 0 V
1 0 V
2 0 V
1 0 V
1 0 V
1 0 V
1 0 V
2 0 V
1 0 V
1 0 V
1 0 V
1 0 V
2 0 V
1 0 V
1 0 V
1 0 V
1 0 V
2 0 V
1 0 V
1 0 V
1 0 V
1 0 V
2 0 V
1 0 V
1 0 V
1 0 V
1 0 V
2 0 V
1 0 V
1 0 V
1 0 V
1 0 V
2 0 V
1 0 V
1 0 V
1 0 V
1 0 V
2 0 V
1 0 V
1 0 V
1 0 V
1 0 V
2 0 V
1 0 V
1 0 V
1 0 V
1 0 V
4441 450 L
1 0 V
1 0 V
1 0 V
1 0 V
2 0 V
1 0 V
1 0 V
1 0 V
1 0 V
2 0 V
1 0 V
1 0 V
1 0 V
1 0 V
2 0 V
1 0 V
1 0 V
1 0 V
1 0 V
2 0 V
1 0 V
1 0 V
1 0 V
1 0 V
2 0 V
1 0 V
1 0 V
1 0 V
1 0 V
2 0 V
1 0 V
1 0 V
1 0 V
1 0 V
2 0 V
1 0 V
1 0 V
1 0 V
1 0 V
2 0 V
1 0 V
1 0 V
1 0 V
1 0 V
2 0 V
1 0 V
1 0 V
1 0 V
1 0 V
2 0 V
1 0 V
1 0 V
1 0 V
1 0 V
2 0 V
1 0 V
1 0 V
1 0 V
1 0 V
2 0 V
1 0 V
1 0 V
1 0 V
1 0 V
2 0 V
1 0 V
1 0 V
1 0 V
1 0 V
2 0 V
1 0 V
1 0 V
1 0 V
1 0 V
2 0 V
1 0 V
1 0 V
1 0 V
1 0 V
2 0 V
1 0 V
1 0 V
1 0 V
1 0 V
2 0 V
1 0 V
1 0 V
1 0 V
1 0 V
2 0 V
1 0 V
1 0 V
1 0 V
1 0 V
2 0 V
1 0 V
1 0 V
1 0 V
1 0 V
2 0 V
1 0 V
1 0 V
1 0 V
1 0 V
4567 450 L
1 0 V
1 0 V
1 0 V
1 0 V
2 0 V
1 0 V
1 0 V
1 0 V
1 0 V
2 0 V
1 0 V
1 0 V
1 0 V
1 0 V
2 0 V
1 0 V
1 0 V
1 0 V
1 0 V
2 0 V
1 0 V
1 0 V
1 0 V
1 0 V
2 0 V
1 0 V
1 0 V
1 0 V
1 0 V
2 0 V
1 0 V
1 0 V
1 0 V
1 0 V
2 0 V
1 0 V
1 0 V
1 0 V
1 0 V
2 0 V
1 0 V
1 0 V
1 0 V
1 0 V
2 0 V
1 0 V
1 0 V
1 0 V
1 0 V
2 0 V
1 0 V
1 0 V
1 0 V
1 0 V
2 0 V
1 0 V
1 0 V
1 0 V
1 0 V
2 0 V
1 0 V
1 0 V
1 0 V
1 0 V
2 0 V
1 0 V
1 0 V
1 0 V
1 0 V
2 0 V
1 0 V
1 0 V
1 0 V
1 0 V
2 0 V
1 0 V
1 0 V
1 0 V
1 0 V
2 0 V
1 0 V
1 0 V
1 0 V
1 0 V
2 0 V
1 0 V
1 0 V
1 0 V
1 0 V
2 0 V
1 0 V
1 0 V
1 0 V
1 0 V
2 0 V
1 0 V
1 0 V
1 0 V
1 0 V
2 0 V
1 0 V
1 0 V
1 0 V
1 0 V
4693 450 L
1 0 V
1 0 V
1 0 V
1 0 V
2 0 V
1 0 V
1 0 V
1 0 V
1 0 V
2 0 V
1 0 V
1 0 V
1 0 V
1 0 V
2 0 V
1 0 V
1 0 V
1 0 V
1 0 V
2 0 V
1 0 V
1 0 V
1 0 V
1 0 V
2 0 V
1 0 V
1 0 V
1 0 V
1 0 V
2 0 V
1 0 V
1 0 V
1 0 V
1 0 V
2 0 V
1 0 V
1 0 V
1 0 V
1 0 V
2 0 V
1 0 V
1 0 V
1 0 V
1 0 V
2 0 V
1 0 V
1 0 V
1 0 V
1 0 V
2 0 V
1 0 V
1 0 V
1 0 V
1 0 V
2 0 V
1 0 V
1 0 V
1 0 V
1 0 V
2 0 V
1 0 V
1 0 V
1 0 V
1 0 V
2 0 V
1 0 V
1 0 V
1 0 V
1 0 V
2 0 V
1 0 V
1 0 V
1 0 V
1 0 V
2 0 V
1 0 V
1 0 V
1 0 V
1 0 V
2 0 V
1 0 V
1 0 V
1 0 V
1 0 V
2 0 V
1 0 V
1 0 V
1 0 V
1 0 V
2 0 V
1 0 V
1 0 V
1 0 V
1 0 V
2 0 V
1 0 V
1 0 V
1 0 V
1 0 V
2 0 V
1 0 V
1 0 V
1 0 V
1 0 V
4819 450 L
1 0 V
1 0 V
1 0 V
1 0 V
2 0 V
1 0 V
1 0 V
1 0 V
1 0 V
2 0 V
1 0 V
1 0 V
1 0 V
1 0 V
2 0 V
1 0 V
1 0 V
1 0 V
1 0 V
2 0 V
1 0 V
1 0 V
1 0 V
1 0 V
2 0 V
1 0 V
1 0 V
1 0 V
1 0 V
2 0 V
1 0 V
1 0 V
1 0 V
1 0 V
2 0 V
1 0 V
1 0 V
1 0 V
1 0 V
2 0 V
1 0 V
1 0 V
1 0 V
1 0 V
2 0 V
1 0 V
1 0 V
1 0 V
1 0 V
2 0 V
1 0 V
1 0 V
1 0 V
1 0 V
2 0 V
1 0 V
1 0 V
1 0 V
1 0 V
2 0 V
1 0 V
1 0 V
1 0 V
1 0 V
2 0 V
1 0 V
1 0 V
1 0 V
1 0 V
2 0 V
1 0 V
1 0 V
1 0 V
1 0 V
2 0 V
1 0 V
1 0 V
1 0 V
1 0 V
2 0 V
1 0 V
1 0 V
1 0 V
1 0 V
2 0 V
1 0 V
1 0 V
1 0 V
1 0 V
2 0 V
1 0 V
1 0 V
1 0 V
1 0 V
2 0 V
1 0 V
1 0 V
1 0 V
1 0 V
2 0 V
1 0 V
1 0 V
1 0 V
1 0 V
4945 450 L
1 0 V
1 0 V
1 0 V
1 0 V
2 0 V
1 0 V
1 0 V
1 0 V
1 0 V
2 0 V
1 0 V
1 0 V
1 0 V
1 0 V
2 0 V
1 0 V
1 0 V
1 0 V
1 0 V
2 0 V
1 0 V
1 0 V
1 0 V
1 0 V
2 0 V
1 0 V
1 0 V
1 0 V
1 0 V
2 0 V
1 0 V
1 0 V
1 0 V
1 0 V
2 0 V
1 0 V
1 0 V
1 0 V
1 0 V
2 0 V
1 0 V
1 0 V
1 0 V
1 0 V
2 0 V
1 0 V
1 0 V
1 0 V
1 0 V
2 0 V
1 0 V
1 0 V
1 0 V
1 0 V
2 0 V
1 0 V
1 0 V
1 0 V
1 0 V
2 0 V
1 0 V
1 0 V
1 0 V
1 0 V
2 0 V
1 0 V
1 0 V
1 0 V
1 0 V
2 0 V
1 0 V
1 0 V
1 0 V
1 0 V
2 0 V
1 0 V
1 0 V
1 0 V
1 0 V
2 0 V
1 0 V
1 0 V
1 0 V
1 0 V
2 0 V
1 0 V
1 0 V
1 0 V
1 0 V
2 0 V
1 0 V
1 0 V
1 0 V
1 0 V
2 0 V
1 0 V
1 0 V
1 0 V
1 0 V
2 0 V
1 0 V
1 0 V
1 0 V
1 0 V
5071 450 L
1 0 V
1 0 V
1 0 V
1 0 V
2 0 V
1 0 V
1 0 V
1 0 V
1 0 V
2 0 V
1 0 V
1 0 V
1 0 V
1 0 V
2 0 V
1 0 V
1 0 V
1 0 V
1 0 V
2 0 V
1 0 V
1 0 V
1 0 V
1 0 V
2 0 V
1 0 V
1 0 V
1 0 V
1 0 V
2 0 V
1 0 V
1 0 V
1 0 V
1 0 V
2 0 V
1 0 V
1 0 V
1 0 V
1 0 V
2 0 V
1 0 V
1 0 V
1 0 V
1 0 V
2 0 V
1 0 V
1 0 V
1 0 V
1 0 V
2 0 V
1 0 V
1 0 V
1 0 V
1 0 V
2 0 V
1 0 V
1 0 V
1 0 V
1 0 V
2 0 V
1 0 V
1 0 V
1 0 V
1 0 V
2 0 V
1 0 V
1 0 V
1 0 V
1 0 V
2 0 V
1 0 V
1 0 V
1 0 V
1 0 V
2 0 V
1 0 V
1 0 V
1 0 V
1 0 V
2 0 V
1 0 V
1 0 V
1 0 V
1 0 V
2 0 V
1 0 V
1 0 V
1 0 V
1 0 V
2 0 V
1 0 V
1 0 V
1 0 V
1 0 V
2 0 V
1 0 V
1 0 V
1 0 V
1 0 V
2 0 V
1 0 V
1 0 V
1 0 V
1 0 V
5197 450 L
1 0 V
1 0 V
1 0 V
1 0 V
2 0 V
1 0 V
1 0 V
1 0 V
1 0 V
2 0 V
1 0 V
1 0 V
1 0 V
1 0 V
2 0 V
1 0 V
1 0 V
1 0 V
1 0 V
2 0 V
1 0 V
1 0 V
1 0 V
1 0 V
2 0 V
1 0 V
1 0 V
1 0 V
1 0 V
2 0 V
1 0 V
1 0 V
1 0 V
1 0 V
2 0 V
1 0 V
1 0 V
1 0 V
1 0 V
2 0 V
1 0 V
1 0 V
1 0 V
1 0 V
2 0 V
1 0 V
1 0 V
1 0 V
1 0 V
2 0 V
1 0 V
1 0 V
1 0 V
1 0 V
2 0 V
1 0 V
1 0 V
1 0 V
1 0 V
2 0 V
1 0 V
1 0 V
1 0 V
1 0 V
2 0 V
1 0 V
1 0 V
1 0 V
1 0 V
2 0 V
1 0 V
1 0 V
1 0 V
1 0 V
2 0 V
1 0 V
1 0 V
1 0 V
1 0 V
2 0 V
1 0 V
1 0 V
1 0 V
1 0 V
2 0 V
1 0 V
1 0 V
1 0 V
1 0 V
2 0 V
1 0 V
1 0 V
1 0 V
1 0 V
2 0 V
1 0 V
1 0 V
1 0 V
1 0 V
2 0 V
1 0 V
1 0 V
1 0 V
1 0 V
5323 450 L
1 0 V
1 0 V
1 0 V
1 0 V
2 0 V
1 0 V
1 0 V
1 0 V
1 0 V
2 0 V
1 0 V
1 0 V
1 0 V
1 0 V
2 0 V
1 0 V
1 0 V
1 0 V
1 0 V
2 0 V
1 0 V
1 0 V
1 0 V
1 0 V
2 0 V
1 0 V
1 0 V
1 0 V
1 0 V
2 0 V
1 0 V
1 0 V
1 0 V
1 0 V
2 0 V
1 0 V
1 0 V
1 0 V
1 0 V
2 0 V
1 0 V
1 0 V
1 0 V
1 0 V
2 0 V
1 0 V
1 0 V
1 0 V
1 0 V
2 0 V
1 0 V
1 0 V
1 0 V
1 0 V
2 0 V
1 0 V
1 0 V
1 0 V
1 0 V
2 0 V
1 0 V
1 0 V
1 0 V
1 0 V
2 0 V
1 0 V
1 0 V
1 0 V
1 0 V
2 0 V
1 0 V
1 0 V
1 0 V
1 0 V
2 0 V
1 0 V
1 0 V
1 0 V
1 0 V
2 0 V
1 0 V
1 0 V
1 0 V
1 0 V
2 0 V
1 0 V
1 0 V
1 0 V
1 0 V
2 0 V
1 0 V
1 0 V
1 0 V
1 0 V
2 0 V
1 0 V
1 0 V
1 0 V
1 0 V
2 0 V
1 0 V
1 0 V
1 0 V
1 0 V
5449 450 L
1 0 V
1 0 V
1 0 V
1 0 V
2 0 V
1 0 V
1 0 V
1 0 V
1 0 V
2 0 V
1 0 V
1 0 V
1 0 V
1 0 V
2 0 V
1 0 V
1 0 V
1 0 V
1 0 V
2 0 V
1 0 V
1 0 V
1 0 V
1 0 V
2 0 V
1 0 V
1 0 V
1 0 V
1 0 V
2 0 V
1 0 V
1 0 V
1 0 V
1 0 V
2 0 V
1 0 V
1 0 V
1 0 V
1 0 V
2 0 V
1 0 V
1 0 V
1 0 V
1 0 V
2 0 V
1 0 V
1 0 V
1 0 V
1 0 V
2 0 V
1 0 V
1 0 V
1 0 V
1 0 V
2 0 V
1 0 V
1 0 V
1 0 V
1 0 V
2 0 V
1 0 V
1 0 V
1 0 V
1 0 V
2 0 V
1 0 V
1 0 V
1 0 V
1 0 V
2 0 V
1 0 V
1 0 V
1 0 V
1 0 V
2 0 V
1 0 V
1 0 V
1 0 V
1 0 V
2 0 V
1 0 V
1 0 V
1 0 V
1 0 V
2 0 V
1 0 V
1 0 V
1 0 V
1 0 V
2 0 V
1 0 V
1 0 V
1 0 V
1 0 V
2 0 V
1 0 V
1 0 V
1 0 V
1 0 V
2 0 V
1 0 V
1 0 V
1 0 V
1 0 V
5575 450 L
1 0 V
1 0 V
1 0 V
1 0 V
2 0 V
1 0 V
1 0 V
1 0 V
1 0 V
2 0 V
1 0 V
1 0 V
1 0 V
1 0 V
2 0 V
1 0 V
1 0 V
1 0 V
1 0 V
2 0 V
1 0 V
1 0 V
1 0 V
1 0 V
2 0 V
1 0 V
1 0 V
1 0 V
1 0 V
2 0 V
1 0 V
1 0 V
1 0 V
1 0 V
2 0 V
1 0 V
1 0 V
1 0 V
1 0 V
2 0 V
1 0 V
1 0 V
1 0 V
1 0 V
2 0 V
1 0 V
1 0 V
1 0 V
1 0 V
2 0 V
1 0 V
1 0 V
1 0 V
1 0 V
2 0 V
1 0 V
1 0 V
1 0 V
1 0 V
2 0 V
1 0 V
1 0 V
1 0 V
1 0 V
2 0 V
1 0 V
1 0 V
1 0 V
1 0 V
2 0 V
1 0 V
1 0 V
1 0 V
1 0 V
2 0 V
1 0 V
1 0 V
1 0 V
1 0 V
2 0 V
1 0 V
1 0 V
1 0 V
1 0 V
2 0 V
1 0 V
1 0 V
1 0 V
1 0 V
2 0 V
1 0 V
1 0 V
1 0 V
1 0 V
2 0 V
1 0 V
1 0 V
1 0 V
1 0 V
2 0 V
1 0 V
1 0 V
1 0 V
1 0 V
5701 450 L
1 0 V
1 0 V
1 0 V
1 0 V
2 0 V
1 0 V
1 0 V
1 0 V
1 0 V
2 0 V
1 0 V
1 0 V
1 0 V
1 0 V
2 0 V
1 0 V
1 0 V
1 0 V
1 0 V
2 0 V
1 0 V
1 0 V
1 0 V
1 0 V
2 0 V
1 0 V
1 0 V
1 0 V
1 0 V
2 0 V
1 0 V
1 0 V
1 0 V
1 0 V
2 0 V
1 0 V
1 0 V
1 0 V
1 0 V
2 0 V
1 0 V
1 0 V
1 0 V
1 0 V
2 0 V
1 0 V
1 0 V
1 0 V
1 0 V
2 0 V
1 0 V
1 0 V
1 0 V
1 0 V
2 0 V
1 0 V
1 0 V
1 0 V
1 0 V
2 0 V
1 0 V
1 0 V
1 0 V
1 0 V
2 0 V
1 0 V
1 0 V
1 0 V
1 0 V
2 0 V
1 0 V
1 0 V
1 0 V
1 0 V
2 0 V
1 0 V
1 0 V
1 0 V
1 0 V
2 0 V
1 0 V
1 0 V
1 0 V
1 0 V
2 0 V
1 0 V
1 0 V
1 0 V
1 0 V
2 0 V
1 0 V
1 0 V
1 0 V
1 0 V
2 0 V
1 0 V
1 0 V
1 0 V
1 0 V
2 0 V
1 0 V
1 0 V
1 0 V
1 0 V
5827 450 L
1 0 V
1 0 V
1 0 V
1 0 V
2 0 V
1 0 V
1 0 V
1 0 V
1 0 V
2 0 V
1 0 V
1 0 V
1 0 V
1 0 V
2 0 V
1 0 V
1 0 V
1 0 V
1 0 V
2 0 V
1 0 V
1 0 V
1 0 V
1 0 V
2 0 V
1 0 V
1 0 V
1 0 V
1 0 V
2 0 V
1 0 V
1 0 V
1 0 V
1 0 V
2 0 V
1 0 V
1 0 V
1 0 V
1 0 V
2 0 V
1 0 V
1 0 V
1 0 V
1 0 V
2 0 V
1 0 V
1 0 V
1 0 V
1 0 V
2 0 V
1 0 V
1 0 V
1 0 V
1 0 V
2 0 V
1 0 V
1 0 V
1 0 V
1 0 V
2 0 V
1 0 V
1 0 V
1 0 V
1 0 V
2 0 V
1 0 V
1 0 V
1 0 V
1 0 V
2 0 V
1 0 V
1 0 V
1 0 V
1 0 V
2 0 V
1 0 V
1 0 V
1 0 V
1 0 V
2 0 V
1 0 V
1 0 V
1 0 V
1 0 V
2 0 V
1 0 V
1 0 V
1 0 V
1 0 V
2 0 V
1 0 V
1 0 V
1 0 V
1 0 V
2 0 V
1 0 V
1 0 V
1 0 V
1 0 V
2 0 V
1 0 V
1 0 V
1 0 V
1 0 V
5953 450 L
1 0 V
1 0 V
1 0 V
1 0 V
2 0 V
1 0 V
1 0 V
1 0 V
1 0 V
2 0 V
1 0 V
1 0 V
1 0 V
1 0 V
2 0 V
1 0 V
1 0 V
1 0 V
1 0 V
2 0 V
1 0 V
1 0 V
1 0 V
1 0 V
2 0 V
1 0 V
1 0 V
1 0 V
1 0 V
2 0 V
1 0 V
1 0 V
1 0 V
1 0 V
2 0 V
1 0 V
1 0 V
1 0 V
1 0 V
2 0 V
1 0 V
1 0 V
1 0 V
1 0 V
2 0 V
1 0 V
1 0 V
1 0 V
1 0 V
2 0 V
1 0 V
1 0 V
1 0 V
1 0 V
2 0 V
1 0 V
1 0 V
1 0 V
1 0 V
2 0 V
1 0 V
1 0 V
1 0 V
1 0 V
2 0 V
1 0 V
1 0 V
1 0 V
1 0 V
2 0 V
1 0 V
1 0 V
1 0 V
1 0 V
2 0 V
1 0 V
1 0 V
1 0 V
1 0 V
2 0 V
1 0 V
1 0 V
1 0 V
1 0 V
2 0 V
1 0 V
1 0 V
1 0 V
1 0 V
2 0 V
1 0 V
1 0 V
1 0 V
1 0 V
2 0 V
1 0 V
1 0 V
1 0 V
1 0 V
2 0 V
1 0 V
1 0 V
1 0 V
1 0 V
6079 450 L
1 0 V
1 0 V
1 0 V
1 0 V
2 0 V
1 0 V
1 0 V
1 0 V
1 0 V
2 0 V
1 0 V
1 0 V
1 0 V
1 0 V
2 0 V
1 0 V
1 0 V
1 0 V
1 0 V
2 0 V
1 0 V
1 0 V
1 0 V
1 0 V
2 0 V
1 0 V
1 0 V
1 0 V
1 0 V
2 0 V
1 0 V
1 0 V
1 0 V
1 0 V
2 0 V
1 0 V
1 0 V
1 0 V
1 0 V
2 0 V
1 0 V
1 0 V
1 0 V
1 0 V
2 0 V
1 0 V
1 0 V
1 0 V
1 0 V
2 0 V
1 0 V
1 0 V
1 0 V
1 0 V
2 0 V
1 0 V
1 0 V
1 0 V
1 0 V
2 0 V
1 0 V
1 0 V
1 0 V
1 0 V
2 0 V
1 0 V
1 0 V
1 0 V
1 0 V
2 0 V
1 0 V
1 0 V
1 0 V
1 0 V
2 0 V
1 0 V
1 0 V
1 0 V
1 0 V
2 0 V
1 0 V
1 0 V
1 0 V
1 0 V
2 0 V
1 0 V
1 0 V
1 0 V
1 0 V
2 0 V
1 0 V
1 0 V
1 0 V
1 0 V
2 0 V
1 0 V
1 0 V
1 0 V
1 0 V
2 0 V
1 0 V
1 0 V
1 0 V
1 0 V
6205 450 L
1 0 V
1 0 V
1 0 V
1 0 V
2 0 V
1 0 V
1 0 V
1 0 V
1 0 V
2 0 V
1 0 V
1 0 V
1 0 V
1 0 V
2 0 V
1 0 V
1 0 V
1 0 V
1 0 V
2 0 V
1 0 V
1 0 V
1 0 V
1 0 V
2 0 V
1 0 V
1 0 V
1 0 V
1 0 V
2 0 V
1 0 V
1 0 V
1 0 V
1 0 V
2 0 V
1 0 V
1 0 V
1 0 V
1 0 V
2 0 V
1 0 V
1 0 V
1 0 V
1 0 V
2 0 V
1 0 V
1 0 V
1 0 V
1 0 V
2 0 V
1 0 V
1 0 V
1 0 V
1 0 V
2 0 V
1 0 V
1 0 V
1 0 V
1 0 V
2 0 V
1 0 V
1 0 V
1 0 V
1 0 V
2 0 V
1 0 V
1 0 V
1 0 V
1 0 V
2 0 V
1 0 V
1 0 V
1 0 V
1 0 V
2 0 V
1 0 V
1 0 V
1 0 V
1 0 V
2 0 V
1 0 V
1 0 V
1 0 V
1 0 V
2 0 V
1 0 V
1 0 V
1 0 V
1 0 V
2 0 V
1 0 V
1 0 V
1 0 V
1 0 V
2 0 V
1 0 V
1 0 V
1 0 V
1 0 V
2 0 V
1 0 V
1 0 V
1 0 V
1 0 V
6331 450 L
1 0 V
1 0 V
1 0 V
1 0 V
2 0 V
1 0 V
1 0 V
1 0 V
1 0 V
2 0 V
1 0 V
1 0 V
1 0 V
1 0 V
2 0 V
1 0 V
1 0 V
1 0 V
1 0 V
2 0 V
1 0 V
1 0 V
1 0 V
1 0 V
2 0 V
1 0 V
1 0 V
1 0 V
1 0 V
2 0 V
1 0 V
1 0 V
1 0 V
1 0 V
2 0 V
1 0 V
1 0 V
1 0 V
1 0 V
2 0 V
1 0 V
1 0 V
1 0 V
1 0 V
2 0 V
1 0 V
1 0 V
1 0 V
1 0 V
2 0 V
1 0 V
1 0 V
1 0 V
1 0 V
2 0 V
1 0 V
1 0 V
1 0 V
1 0 V
2 0 V
1 0 V
1 0 V
1 0 V
1 0 V
2 0 V
1 0 V
1 0 V
1 0 V
1 0 V
2 0 V
1 0 V
1 0 V
1 0 V
1 0 V
2 0 V
1 0 V
1 0 V
1 0 V
1 0 V
2 0 V
1 0 V
1 0 V
1 0 V
1 0 V
2 0 V
1 0 V
1 0 V
1 0 V
1 0 V
2 0 V
1 0 V
1 0 V
1 0 V
1 0 V
2 0 V
1 0 V
1 0 V
1 0 V
1 0 V
2 0 V
1 0 V
1 0 V
1 0 V
1 0 V
6457 450 L
1 0 V
1 0 V
1 0 V
1 0 V
2 0 V
1 0 V
1 0 V
1 0 V
1 0 V
2 0 V
1 0 V
1 0 V
1 0 V
1 0 V
2 0 V
1 0 V
1 0 V
1 0 V
1 0 V
2 0 V
1 0 V
1 0 V
1 0 V
1 0 V
2 0 V
1 0 V
1 0 V
1 0 V
1 0 V
2 0 V
1 0 V
1 0 V
1 0 V
1 0 V
2 0 V
1 0 V
1 0 V
1 0 V
1 0 V
2 0 V
1 0 V
1 0 V
1 0 V
1 0 V
2 0 V
1 0 V
1 0 V
1 0 V
1 0 V
2 0 V
1 0 V
1 0 V
1 0 V
1 0 V
2 0 V
1 0 V
1 0 V
1 0 V
1 0 V
2 0 V
1 0 V
1 0 V
1 0 V
1 0 V
2 0 V
1 0 V
1 0 V
1 0 V
1 0 V
2 0 V
1 0 V
1 0 V
1 0 V
1 0 V
2 0 V
1 0 V
1 0 V
1 0 V
1 0 V
2 0 V
1 0 V
1 0 V
1 0 V
1 0 V
2 0 V
1 0 V
1 0 V
1 0 V
1 0 V
2 0 V
1 0 V
1 0 V
1 0 V
1 0 V
2 0 V
1 0 V
1 0 V
1 0 V
1 0 V
2 0 V
1 0 V
1 0 V
1 0 V
1 0 V
6583 450 L
1 0 V
1 0 V
1 0 V
1 0 V
2 0 V
1 0 V
1 0 V
1 0 V
1 0 V
2 0 V
1 0 V
1 0 V
1 0 V
1 0 V
2 0 V
1 0 V
1 0 V
1 0 V
1 0 V
2 0 V
1 0 V
1 0 V
1 0 V
1 0 V
2 0 V
1 0 V
1 0 V
1 0 V
1 0 V
2 0 V
1 0 V
1 0 V
1 0 V
1 0 V
2 0 V
1 0 V
1 0 V
1 0 V
1 0 V
2 0 V
1 0 V
1 0 V
1 0 V
1 0 V
2 0 V
1 0 V
1 0 V
1 0 V
1 0 V
2 0 V
1 0 V
1 0 V
1 0 V
1 0 V
2 0 V
1 0 V
1 0 V
1 0 V
1 0 V
2 0 V
1 0 V
1 0 V
1 0 V
1 0 V
2 0 V
1 0 V
1 0 V
1 0 V
1 0 V
2 0 V
1 0 V
1 0 V
1 0 V
1 0 V
2 0 V
1 0 V
1 0 V
1 0 V
1 0 V
2 0 V
1 0 V
1 0 V
1 0 V
1 0 V
2 0 V
1 0 V
1 0 V
1 0 V
1 0 V
2 0 V
1 0 V
1 0 V
1 0 V
1 0 V
2 0 V
1 0 V
1 0 V
1 0 V
1 0 V
2 0 V
1 0 V
1 0 V
1 0 V
1 0 V
6709 450 L
1 0 V
1 0 V
1 0 V
1 0 V
2 0 V
1 0 V
1 0 V
1 0 V
1 0 V
2 0 V
1 0 V
1 0 V
1 0 V
1 0 V
2 0 V
1 0 V
1 0 V
1 0 V
1 0 V
2 0 V
1 0 V
1 0 V
1 0 V
1 0 V
2 0 V
1 0 V
1 0 V
1 0 V
1 0 V
2 0 V
1 0 V
1 0 V
1 0 V
1 0 V
2 0 V
1 0 V
1 0 V
1 0 V
1 0 V
2 0 V
1 0 V
1 0 V
1 0 V
1 0 V
2 0 V
1 0 V
1 0 V
1 0 V
1 0 V
2 0 V
1 0 V
1 0 V
1 0 V
1 0 V
2 0 V
1 0 V
1 0 V
1 0 V
1 0 V
2 0 V
1 0 V
1 0 V
1 0 V
1 0 V
2 0 V
1 0 V
1 0 V
1 0 V
1 0 V
2 0 V
1 0 V
1 0 V
1 0 V
1 0 V
2 0 V
1 0 V
1 0 V
1 0 V
1 0 V
2 0 V
1 0 V
1 0 V
1 0 V
1 0 V
2 0 V
1 0 V
1 0 V
1 0 V
1 0 V
2 0 V
1 0 V
1 0 V
1 0 V
1 0 V
2 0 V
1 0 V
1 0 V
1 0 V
1 0 V
2 0 V
1 0 V
1 0 V
1 0 V
1 0 V
6835 450 L
1 0 V
1 0 V
1 0 V
1 0 V
2 0 V
1 0 V
1 0 V
1 0 V
1 0 V
2 0 V
1 0 V
1 0 V
1 0 V
1 0 V
2 0 V
1 0 V
1 0 V
1 0 V
1 0 V
2 0 V
1 0 V
1 0 V
1 0 V
1 0 V
2 0 V
1 0 V
1 0 V
1 0 V
1 0 V
2 0 V
1 0 V
1 0 V
1 0 V
1 0 V
2 0 V
1 0 V
1 0 V
1 0 V
1 0 V
2 0 V
1 0 V
1 0 V
1 0 V
1 0 V
2 0 V
1 0 V
1 0 V
1 0 V
1 0 V
2 0 V
1 0 V
1 0 V
1 0 V
1 0 V
2 0 V
1 0 V
1 0 V
1 0 V
1 0 V
2 0 V
1 0 V
1 0 V
1 0 V
1 0 V
2 0 V
1 0 V
1 0 V
1 0 V
1 0 V
2 0 V
1 0 V
1 0 V
1 0 V
1 0 V
2 0 V
1 0 V
1 0 V
1 0 V
1 0 V
2 0 V
1 0 V
1 0 V
1 0 V
1 0 V
2 0 V
1 0 V
1 0 V
1 0 V
1 0 V
2 0 V
1 0 V
stroke
LTb
945 4590 N
945 450 L
6000 0 V
0 4140 V
-6000 0 V
Z stroke
1.000 UP
1.000 UL
LTb
stroke
grestore
end
showpage
%%Trailer
%%DocumentFonts: Helvetica
